1 0 0 0 0 1 0 0 0 0 1 0
0.999998 0.000879235 0.00166804 -0.00405074 -0.000871031 0.999988 -0.00491318 -0.00175457 -0.00167234 0.00491171 0.999987 0.951562
0.999997 0.000276942 0.00253495 -6.46458e-05 -0.000263447 0.999986 -0.00532219 -0.00285096 -0.00253639 0.0053215 0.999983 1.90024
0.999995 -0.00119501 0.00284414 0.0010092 0.0012015 0.999997 -0.00228175 -0.0027624 -0.00284141 0.00228516 0.999993 2.86588
0.999991 -0.00407127 0.00117455 -9.46533e-05 0.00406674 0.999984 0.00383375 -0.00639352 -0.00119014 -0.00382894 0.999992 3.81447
0.999968 -0.00792908 -0.000387658 0.010398 0.00793051 0.999961 0.00384478 0.00206261 0.000357157 -0.00384773 0.999993 4.74848
0.99994 -0.0109815 -0.000158989 0.0175554 0.0109816 0.999939 0.000989833 -0.00535049 0.00014811 -0.000991519 0.999999 5.68566
0.999943 -0.0104741 -0.00189057 -0.00414764 0.0104698 0.999943 -0.002284 -0.00621294 0.00191438 0.00226407 0.999996 6.61526
0.999947 -0.00994163 -0.00252593 -0.00389007 0.00993405 0.999946 -0.00299936 -0.00972911 0.00255561 0.00297411 0.999992 7.54308
0.999939 -0.010598 -0.00306928 -0.00286353 0.0105947 0.999943 -0.00108552 -0.00900647 0.00308061 0.00105293 0.999995 8.48431
0.999937 -0.0105621 -0.00388658 -0.0131017 0.0105683 0.999943 0.00156706 -0.00491664 0.00386981 -0.00160804 0.999991 9.3817
0.999922 -0.0115237 -0.00487922 -0.0194143 0.0115396 0.999928 0.00325296 -0.00845075 0.00484138 -0.00330901 0.999983 10.3014
0.999907 -0.0124718 -0.00543284 -0.0285358 0.0124941 0.999914 0.00408763 -0.00918988 0.00538139 -0.00415513 0.999977 11.233
0.999905 -0.0122651 -0.00627843 -0.0424936 0.0122898 0.999917 0.00389977 -0.00240823 0.00623008 -0.00397656 0.999973 12.1524
0.999906 -0.0117841 -0.00704729 -0.0510937 0.0118033 0.999927 0.00268807 -0.00389184 0.0070151 -0.002771 0.999972 13.0708
0.999907 -0.0105144 -0.00864438 -0.0521259 0.0105166 0.999945 0.000210964 -0.00354488 0.00864168 -0.000301855 0.999963 13.9753
0.99984 -0.0148248 -0.0100485 -0.0662848 0.014817 0.99989 -0.000851228 -0.00329807 0.01006 0.000702203 0.999949 14.8598
0.999845 -0.0132402 -0.011629 -0.0770172 0.0132239 0.999911 -0.00148073 -0.00665101 0.0116475 0.00132672 0.999931 15.7426
0.999838 -0.0123905 -0.0130228 -0.0919247 0.0123629 0.999921 -0.00220061 -0.00596006 0.0130491 0.00203925 0.999913 16.644
0.999829 -0.011359 -0.0146257 -0.115774 0.0113262 0.999933 -0.00232501 -0.0132651 0.0146511 0.00215895 0.99989 17.5383
0.999804 -0.0113276 -0.0162613 -0.135303 0.0112998 0.999935 -0.00180232 -0.0168391 0.0162806 0.00161822 0.999866 18.4116
0.999782 -0.011491 -0.0174445 -0.158923 0.0114806 0.999934 -0.000696803 -0.0195391 0.0174513 0.000496378 0.999848 19.3146
0.999751 -0.0115168 -0.0191205 -0.173963 0.011519 0.999934 3.30327e-06 -0.023101 0.0191192 -0.000223551 0.999817 20.1738
0.999732 -0.0115776 -0.0200615 -0.196243 0.0115785 0.999933 -7.22218e-05 -0.0275142 0.020061 -0.00016008 0.999799 21.0528
0.999695 -0.0110128 -0.0220864 -0.218218 0.0110048 0.999939 -0.00048559 -0.0303999 0.0220904 0.000242386 0.999756 21.9388
0.999669 -0.0108349 -0.0233237 -0.229731 0.0108346 0.999941 -0.000138478 -0.0338852 0.0233238 -0.000114272 0.999728 22.7816
0.999651 -0.0110757 -0.0239874 -0.263283 0.0111139 0.999937 0.00146383 -0.0280348 0.0239697 -0.00172991 0.999711 23.6415
0.999615 -0.0118999 -0.0250694 -0.281014 0.0120114 0.999919 0.00430414 -0.0306612 0.0250162 -0.00460361 0.999676 24.4866
0.999606 -0.0118049 -0.0254749 -0.308355 0.0119548 0.999912 0.00574109 -0.0314094 0.0254049 -0.00604338 0.999659 25.3276
0.999598 -0.0113925 -0.0259675 -0.335821 0.0115233 0.999922 0.00489251 -0.0305501 0.0259097 -0.00518978 0.999651 26.1605
0.999591 -0.00978536 -0.0268761 -0.363053 0.0098482 0.999949 0.00220674 -0.0341532 0.0268531 -0.00247052 0.999636 26.9778
0.999579 -0.00902301 -0.0275716 -0.393971 0.00904064 0.999959 0.000514745 -0.0298777 0.0275658 -0.000763793 0.99962 27.7707
0.999569 -0.00851417 -0.0280966 -0.419464 0.00852372 0.999964 0.000220096 -0.0309784 0.0280937 -0.000459489 0.999605 28.5757
0.999526 -0.00865344 -0.029541 -0.445946 0.00865634 0.999963 -2.95587e-05 -0.037806 0.0295402 -0.000226173 0.999564 29.3471
0.999464 -0.00837866 -0.0316398 -0.471036 0.00836582 0.999965 -0.000538181 -0.0419278 0.0316432 0.0002732 0.999499 30.1176
0.999409 -0.00849958 -0.0333104 -0.500266 0.0084756 0.999964 -0.000861306 -0.0428002 0.0333165 0.000578471 0.999445 30.9043
0.999339 -0.00835408 -0.0353942 -0.532093 0.00835856 0.999965 -2.1374e-05 -0.0461908 0.0353931 -0.000274485 0.999373 31.6407
0.999251 -0.0082521 -0.0378109 -0.57214 0.00833487 0.999963 0.00203201 -0.0472699 0.0377927 -0.00234564 0.999283 32.3996
0.999195 -0.00763574 -0.0393943 -0.599947 0.00778186 0.999963 0.00355705 -0.0481232 0.0393657 -0.00386075 0.999217 33.1505
0.999122 -0.00725472 -0.0412522 -0.637298 0.0074209 0.999965 0.00387667 -0.053002 0.0412226 -0.0041794 0.999141 33.8627
0.999055 -0.00458218 -0.0432148 -0.672451 0.00473229 0.999983 0.00337192 -0.0537748 0.0431986 -0.00357324 0.99906 34.5911
0.998998 -0.00292782 -0.0446513 -0.708254 0.00304856 0.999992 0.00263615 -0.0487997 0.0446432 -0.00276963 0.998999 35.2747
0.99892 -0.00212173 -0.046422 -0.747422 0.00228535 0.999991 0.00347191 -0.0458045 0.0464142 -0.00357425 0.998916 35.983
0.998878 -0.000893093 -0.0473497 -0.776996 0.00113764 0.999986 0.00513797 -0.0472574 0.0473445 -0.00518607 0.998865 36.6865
0.998875 0.000482878 -0.0474198 -0.817802 -0.000192116 0.999981 0.00613602 -0.0410545 0.0474219 -0.00612 0.998856 37.3352
0.998896 0.00540866 -0.0466564 -0.8604 -0.00522854 0.999978 0.00398166 -0.0511502 0.046677 -0.00373332 0.998903 38.012
0.99898 0.00704726 -0.0446104 -0.892605 -0.00700902 0.999975 0.00101355 -0.0433224 0.0446164 -0.000699836 0.999004 38.6793
0.999068 0.00793 -0.042423 -0.922712 -0.0079661 0.999968 -0.000681936 -0.0523671 0.0424162 0.00101925 0.9991 39.3146
0.999177 0.00835162 -0.0396967 -0.959555 -0.00837588 0.999965 -0.000444867 -0.0472661 0.0396916 0.000776996 0.999212 39.9401
0.999251 0.0133593 -0.0363071 -0.986998 -0.0132708 0.999908 0.00267772 -0.0582414 0.0363395 -0.00219389 0.999337 40.5818
0.999307 0.0183406 -0.032387 -1.02316 -0.0181568 0.999817 0.00596028 -0.048647 0.0324904 -0.0053681 0.999458 41.1912
0.999342 0.0225915 -0.0283693 -1.05281 -0.0224017 0.999725 0.00698971 -0.0532091 0.0285194 -0.0063496 0.999573 41.7927
0.99939 0.0265516 -0.0227019 -1.05922 -0.0263942 0.999626 0.00720636 -0.0542214 0.0228847 -0.00660277 0.999716 42.3975
0.999409 0.0297735 -0.0171633 -1.07783 -0.0296223 0.999521 0.00899556 -0.0463557 0.0174229 -0.00848183 0.999812 42.96
0.999326 0.0352832 -0.0101107 -1.09568 -0.0351794 0.999328 0.0102668 -0.0451453 0.0104662 -0.00990414 0.999896 43.4991
0.999251 0.0386086 -0.00275712 -1.11334 -0.0385786 0.999203 0.010202 -0.0468858 0.00314881 -0.010088 0.999944 44.047
0.999105 0.0420875 0.00429654 -1.11276 -0.0421296 0.99906 0.0102338 -0.0486301 -0.00386179 -0.0104056 0.999938 44.5495
0.998877 0.0459484 0.011584 -1.11804 -0.046059 0.998894 0.00946789 -0.0440696 -0.0111362 -0.0099908 0.999888 45.0508
0.998502 0.0510922 0.0195581 -1.11339 -0.0512452 0.998659 0.00740379 -0.0469588 -0.0191536 -0.00839496 0.999781 45.5183
0.998244 0.0527617 0.026944 -1.09305 -0.0528973 0.99859 0.00434728 -0.0580984 -0.0266767 -0.00576491 0.999627 45.9326
0.997945 0.0535642 0.0351756 -1.09042 -0.0537284 0.998549 0.00373806 -0.0426218 -0.0349243 -0.0056203 0.999374 46.3734
0.997703 0.0525263 0.0427708 -1.07419 -0.0527755 0.998595 0.00471631 -0.0465048 -0.042463 -0.00696273 0.999074 46.7595
0.997234 0.0539721 0.0511014 -1.05086 -0.0543142 0.99851 0.00533023 -0.0451277 -0.0507376 -0.00809102 0.998679 47.1349
0.996538 0.0572715 0.0602708 -1.03422 -0.0577232 0.998316 0.00577783 -0.0499168 -0.0598384 -0.00923684 0.998165 47.4891
0.995693 0.0620115 0.0689174 -1.01748 -0.0625207 0.99803 0.00525421 -0.053352 -0.0684558 -0.00954035 0.997609 47.806
0.994776 0.0658792 0.0779742 -1.00623 -0.0664931 0.997773 0.00530114 -0.04628 -0.0774513 -0.0104582 0.996941 48.1083
0.994083 0.0651964 0.0868864 -0.97225 -0.0659194 0.99781 0.00547602 -0.0478908 -0.0863391 -0.0111711 0.996203 48.399
0.993192 0.0642283 0.0971838 -0.942962 -0.06491 0.997884 0.00386589 -0.0510017 -0.0967298 -0.0101478 0.995259 48.6549
0.992013 0.0630857 0.109224 -0.911374 -0.0634302 0.997986 -0.000320957 -0.0563217 -0.109024 -0.0066097 0.994017 48.9206
0.990366 0.0640128 0.122788 -0.870182 -0.0640279 0.997941 -0.00382774 -0.0675662 -0.12278 -0.00407098 0.992426 49.1911
0.98831 0.0657321 0.137558 -0.814541 -0.0654347 0.997834 -0.00668796 -0.0577822 -0.1377 -0.0023913 0.990471 49.4586
0.985798 0.0671423 0.153926 -0.785021 -0.0666562 0.997741 -0.00832271 -0.0603251 -0.154137 -0.00205563 0.988047 49.7051
0.982935 0.0678353 0.170988 -0.741641 -0.0671997 0.997694 -0.0095088 -0.0611333 -0.171239 -0.0021438 0.985227 49.9405
0.979713 0.0674332 0.18872 -0.679729 -0.0666314 0.997721 -0.0105974 -0.0660676 -0.189005 -0.00219228 0.981974 50.194
0.975804 0.0662301 0.208374 -0.61641 -0.0653179 0.997801 -0.0112635 -0.0702504 -0.208662 -0.00261956 0.977984 50.4413
0.971235 0.0665897 0.228624 -0.564549 -0.0654695 0.997776 -0.0124893 -0.0743984 -0.228948 -0.00283783 0.973435 50.6787
0.965872 0.0685545 0.249781 -0.490147 -0.067 0.997644 -0.014731 -0.0764108 -0.250203 -0.00250709 0.96819 50.9192
0.959779 0.0701508 0.271851 -0.402805 -0.0681485 0.997534 -0.0168117 -0.0801395 -0.27236 -0.0023908 0.962192 51.1605
0.952285 0.0714464 0.296731 -0.327398 -0.0692315 0.997439 -0.0179803 -0.0895192 -0.297255 -0.00342081 0.954792 51.401
0.943913 0.0740002 0.321795 -0.225027 -0.0716075 0.997246 -0.0192831 -0.0925036 -0.322336 -0.00484133 0.946613 51.6303
0.934207 0.0763535 0.348464 -0.142866 -0.0738226 0.997059 -0.0205569 -0.0990072 -0.349008 -0.00652004 0.937097 51.9012
0.922615 0.0772761 0.377901 -0.0311522 -0.0744784 0.996979 -0.0220367 -0.0996069 -0.378462 -0.00781404 0.925584 52.1257
0.909971 0.0756548 0.407711 0.0806153 -0.0721565 0.997105 -0.0239764 -0.117085 -0.408345 -0.00760121 0.912796 52.3427
0.89515 0.0729237 0.43976 0.246183 -0.0680358 0.99732 -0.0268922 -0.128148 -0.440543 -0.00584681 0.897713 52.5901
0.87765 0.0723746 0.473805 0.367553 -0.0653839 0.997371 -0.0312366 -0.135378 -0.474821 -0.00356444 0.880075 52.8034
0.858343 0.0742322 0.507678 0.544724 -0.0647737 0.997239 -0.036301 -0.141238 -0.508971 -0.00172542 0.860782 53.0366
0.836545 0.0764532 0.542538 0.69073 -0.0644433 0.997073 -0.0411393 -0.145788 -0.544095 -0.000548031 0.839024 53.2582
0.812218 0.0794236 0.577922 0.870174 -0.0654756 0.99684 -0.0449752 -0.158336 -0.579668 -0.00131013 0.814852 53.4961
0.784422 0.0835609 0.614572 1.09754 -0.0685253 0.996493 -0.0480255 -0.175608 -0.61643 -0.0044415 0.787397 53.7373
0.754731 0.0879256 0.650115 1.30437 -0.071654 0.996097 -0.0515339 -0.17951 -0.652109 -0.00768904 0.758086 53.9732
0.721226 0.08911 0.686944 1.54132 -0.0712828 0.995974 -0.054357 -0.194771 -0.689022 -0.00976366 0.724674 54.2006
0.685552 0.0872611 0.722775 1.84085 -0.0683615 0.99612 -0.0554213 -0.224956 -0.724807 -0.0114158 0.688858 54.4493
0.646717 0.086046 0.757861 2.12907 -0.0656429 0.996209 -0.0570915 -0.246619 -0.7599 -0.0128262 0.649913 54.6643
0.604448 0.0857466 0.792016 2.46909 -0.0633912 0.996215 -0.0594751 -0.258729 -0.794118 -0.0142573 0.607596 54.882
0.558621 0.0856784 0.824986 2.79532 -0.060099 0.996217 -0.0627669 -0.282792 -0.827243 -0.0145179 0.561657 55.112
0.510352 0.084734 0.855781 3.14651 -0.0566392 0.996285 -0.0648686 -0.308657 -0.858099 -0.015365 0.513255 55.2852
0.462475 0.0827329 0.882764 3.55373 -0.0545123 0.996407 -0.0648249 -0.338089 -0.884955 -0.0181416 0.465323 55.467
0.41197 0.0805977 0.907626 3.95304 -0.0541624 0.996485 -0.0639042 -0.368152 -0.909586 -0.0228325 0.414888 55.6465
0.361668 0.0803697 0.928836 4.39216 -0.0566967 0.996329 -0.0641333 -0.382753 -0.930582 -0.029467 0.364897 55.8035
0.31279 0.0810584 0.946357 4.86111 -0.0550012 0.996226 -0.0671509 -0.390634 -0.948229 -0.0310466 0.316068 55.9394
0.265054 0.07774 0.961095 5.33104 -0.0446002 0.996666 -0.0683173 -0.442181 -0.963202 -0.0247573 0.267637 56.0474
0.220919 0.0722739 0.972611 5.82529 -0.0307173 0.997271 -0.0671293 -0.467841 -0.974808 -0.0150458 0.222536 56.1286
0.178644 0.0705273 0.981383 6.35196 -0.0213497 0.997471 -0.0677971 -0.522787 -0.983682 -0.00884066 0.179698 56.2029
0.140195 0.0728655 0.987439 6.8477 -0.0175718 0.997314 -0.0710994 -0.519573 -0.989968 -0.00738328 0.141099 56.2583
0.107212 0.0731408 0.991542 7.37755 -0.00960569 0.99732 -0.0725284 -0.571753 -0.99419 -0.00174851 0.107627 56.3047
0.0781537 0.0715301 0.994372 7.9415 -0.00101993 0.997428 -0.0716698 -0.612932 -0.996941 0.00458707 0.0780256 56.3259
0.0529325 0.0700754 0.996136 8.48856 0.00502456 0.997503 -0.0704386 -0.63753 -0.998585 0.00873364 0.0524482 56.3506
0.0333134 0.0693025 0.997039 9.05189 0.0110586 0.997506 -0.0697045 -0.670374 -0.999384 0.0133479 0.032464 56.3554
0.0163601 0.0703776 0.997386 9.64287 0.0128575 0.997422 -0.0705911 -0.718087 -0.999783 0.0139788 0.0154131 56.3656
0.00341409 0.0706739 0.997494 10.227 0.0143891 0.997393 -0.070716 -0.742283 -0.999891 0.0145945 0.00238825 56.3607
-0.00823207 0.0719079 0.997377 10.827 0.0148758 0.99731 -0.0717802 -0.757595 -0.999855 0.0142458 -0.00927961 56.3508
-0.017582 0.0743912 0.997074 11.449 0.0195222 0.997064 -0.0740462 -0.816476 -0.999655 0.0181632 -0.0189827 56.3343
-0.0244152 0.0761483 0.996798 12.0785 0.0234709 0.996864 -0.0755785 -0.874677 -0.999426 0.0215505 -0.0261259 56.312
-0.0289302 0.0757718 0.996705 12.7115 0.0241263 0.996885 -0.0750852 -0.905915 -0.99929 0.0218745 -0.0306682 56.2924
-0.0327543 0.0730924 0.996787 13.3662 0.0216082 0.997141 -0.0724083 -0.958216 -0.99923 0.0191671 -0.03424 56.2751
-0.034817 0.0665926 0.997173 14.0319 0.0201599 0.997621 -0.0659187 -0.978017 -0.99919 0.0178078 -0.0360767 56.263
-0.0366117 0.0611732 0.997455 14.7051 0.0209766 0.997952 -0.0604337 -1.01389 -0.999109 0.0187106 -0.0378199 56.2338
-0.0368665 0.0589893 0.997578 15.3907 0.0238621 0.998024 -0.0581338 -1.04292 -0.999035 0.0216611 -0.0382013 56.2139
-0.0366895 0.0605454 0.997491 16.0827 0.0278901 0.997836 -0.0595405 -1.09812 -0.998937 0.0256356 -0.0382987 56.1768
-0.0356483 0.0678619 0.997058 16.7743 0.0287786 0.997348 -0.0668527 -1.13369 -0.99895 0.0263107 -0.0375068 56.1506
-0.0335934 0.0745967 0.996648 17.4834 0.027261 0.996908 -0.0736973 -1.21366 -0.999064 0.0246938 -0.0355231 56.1276
-0.0319307 0.0762795 0.996575 18.2077 0.0282003 0.996755 -0.0753898 -1.24348 -0.999092 0.0256964 -0.0339782 56.104
-0.0294572 0.0721943 0.996955 18.9349 0.0287441 0.997037 -0.0713509 -1.27885 -0.999153 0.0265548 -0.0314451 56.084
-0.0265154 0.0667555 0.997417 19.6648 0.0293174 0.997391 -0.0659743 -1.30294 -0.999218 0.0274923 -0.0284033 56.0639
-0.0239075 0.0648575 0.997608 20.4192 0.0268538 0.997575 -0.0642117 -1.35115 -0.999353 0.0252545 -0.0255912 56.0639
-0.0206566 0.0697882 0.997348 21.1386 0.0340024 0.997033 -0.0690619 -1.41425 -0.999208 0.0324856 -0.0229683 56.0451
-0.017567 0.0744744 0.997068 21.87 0.0357495 0.996631 -0.0738119 -1.48975 -0.999206 0.034348 -0.0201702 56.0163
-0.0152367 0.0754846 0.997031 22.6284 0.0296986 0.996741 -0.0750087 -1.52635 -0.999443 0.0284676 -0.0174288 56.0249
-0.0119192 0.0725519 0.997293 23.356 0.0244556 0.997087 -0.0722446 -1.56583 -0.99963 0.0235283 -0.0136588 56.0271
-0.00724411 0.0690199 0.997589 24.095 0.0294898 0.997196 -0.0687785 -1.60755 -0.999539 0.0289205 -0.00925917 56.0101
-0.00310535 0.069999 0.997542 24.8378 0.0346994 0.996954 -0.0698497 -1.66294 -0.999393 0.0343972 -0.00552481 56.0057
4.4978e-06 0.0737479 0.997277 25.5653 0.0338873 0.996704 -0.0737057 -1.73783 -0.999426 0.0337953 -0.00249463 55.9999
0.00301395 0.0753372 0.997154 26.3249 0.0299117 0.996705 -0.0753937 -1.77283 -0.999548 0.0300538 0.000750559 56.0183
0.00633045 0.0745741 0.997195 27.0775 0.028324 0.996802 -0.0747245 -1.83266 -0.999579 0.0287176 0.00419797 56.0279
0.0106741 0.0721652 0.997336 27.8015 0.0327622 0.996832 -0.0724794 -1.87078 -0.999406 0.0334486 0.00827601 56.0269
0.0138834 0.0719435 0.997312 28.5503 0.0375384 0.996668 -0.0724195 -1.93142 -0.999199 0.0384429 0.0111365 56.0348
0.0173608 0.0729391 0.997185 29.2704 0.0404863 0.996466 -0.0735913 -1.98878 -0.999029 0.0416499 0.0143464 56.0536
0.0204163 0.0727315 0.997143 30.0222 0.041039 0.996449 -0.0735212 -2.04147 -0.998949 0.0424228 0.017359 56.0588
0.0235746 0.0718409 0.997137 30.7687 0.0419517 0.996465 -0.0727843 -2.08344 -0.998841 0.0435474 0.0204775 56.0745
0.0273216 0.0705924 0.997131 31.5211 0.0450938 0.996401 -0.0717763 -2.1436 -0.998609 0.0469255 0.02404 56.1044
0.0306412 0.0710855 0.996999 32.273 0.0431364 0.996444 -0.0723716 -2.19106 -0.998599 0.0452245 0.0274659 56.1245
0.0330767 0.072487 0.996821 33.0123 0.0396826 0.996485 -0.0737793 -2.24228 -0.998665 0.0419968 0.0300839 56.1532
0.0356521 0.0726895 0.996717 33.7556 0.0412986 0.996392 -0.074143 -2.29413 -0.998511 0.0438064 0.0325215 56.1791
0.0386295 0.0723812 0.996629 34.5094 0.0393295 0.99649 -0.0738956 -2.34637 -0.998479 0.0420514 0.0356472 56.2234
0.0407385 0.0726471 0.996525 35.2626 0.0376433 0.996534 -0.0741866 -2.3978 -0.99846 0.0405348 0.0378626 56.248
0.0438814 0.073015 0.996365 36.0253 0.035476 0.996583 -0.0745934 -2.45352 -0.998407 0.0386203 0.0411412 56.282
0.0472121 0.0748781 0.996074 36.7866 0.0328779 0.99653 -0.0764707 -2.50654 -0.998344 0.0363592 0.0445864 56.3235
0.0499953 0.0782602 0.995679 37.5448 0.0324458 0.996272 -0.079936 -2.56617 -0.998222 0.036302 0.0472697 56.3657
0.0536488 0.080232 0.995331 38.311 0.0321715 0.996111 -0.0820289 -2.62081 -0.998041 0.0364221 0.050859 56.4104
0.0566182 0.0827062 0.994964 39.0819 0.026601 0.996084 -0.0843131 -2.68144 -0.998041 0.0312407 0.0541964 56.4664
0.058779 0.0824499 0.99486 39.8443 0.0219924 0.996235 -0.0838631 -2.72436 -0.998029 0.0268087 0.0567444 56.5188
0.0625802 0.0825045 0.994624 40.638 0.0243277 0.996155 -0.0841622 -2.80229 -0.997743 0.0294638 0.0603325 56.5724
0.0662787 0.0836941 0.994285 41.414 0.024508 0.996039 -0.0854754 -2.87069 -0.9975 0.0300331 0.063965 56.6322
0.0698107 0.0847167 0.993957 42.1889 0.0197044 0.996076 -0.0862812 -2.92971 -0.997366 0.0256086 0.0678675 56.6927
0.0740567 0.0834617 0.993755 42.9834 0.0185384 0.996204 -0.0850489 -2.9751 -0.997082 0.0247211 0.0722283 56.7514
0.0788796 0.081957 0.993509 43.7839 0.0202932 0.996276 -0.0837965 -3.06596 -0.996678 0.0267713 0.0769227 56.8168
0.0833553 0.0862407 0.992781 44.551 0.0157153 0.996011 -0.0878407 -3.10521 -0.996396 0.0229238 0.0816674 56.8966
0.0893397 0.0947449 0.991485 45.3628 0.0135525 0.995258 -0.0963266 -3.19199 -0.995909 0.0220428 0.087632 56.976
0.0964347 0.0998172 0.990322 46.1632 0.0122692 0.994764 -0.10146 -3.25653 -0.995264 0.0219347 0.0947051 57.0642
0.1038 0.10282 0.989269 46.942 0.00723704 0.994538 -0.104126 -3.33086 -0.994572 0.0179677 0.102489 57.1496
0.111419 0.101046 0.988623 47.7636 0.00424194 0.99476 -0.102151 -3.40587 -0.993764 0.0155753 0.110407 57.2498
0.118713 0.0990581 0.987975 48.5764 0.00359097 0.994962 -0.10019 -3.49086 -0.992922 0.0154417 0.117759 57.3491
0.125398 0.0961008 0.987441 49.3883 0.00348159 0.995249 -0.0973028 -3.5685 -0.9921 0.0156395 0.124468 57.4664
0.132948 0.090193 0.987011 50.2224 0.0021497 0.995822 -0.0912878 -3.65284 -0.991121 0.0142583 0.132198 57.5806
0.140303 0.0832155 0.986605 51.0329 -0.00119124 0.996475 -0.0838786 -3.71823 -0.990108 0.0105931 0.139907 57.7088
0.147919 0.0793759 0.985809 51.8148 -0.00108212 0.996786 -0.0800974 -3.79694 -0.988999 0.0107811 0.147529 57.8297
0.155338 0.0815774 0.984487 52.6213 -0.00131391 0.996601 -0.0823738 -3.85999 -0.98786 0.0115023 0.154917 57.9617
0.160687 0.0880437 0.983071 53.4133 -0.00139864 0.996033 -0.0889759 -3.93233 -0.987004 0.0129223 0.160173 58.0917
0.16654 0.0924327 0.981693 54.1605 -0.00242691 0.995632 -0.0933334 -3.98346 -0.986032 0.0131612 0.166037 58.2301
0.171247 0.0947322 0.980663 54.964 -0.00399629 0.995425 -0.0954604 -4.07096 -0.98522 0.0124283 0.170843 58.3725
0.176087 0.0949182 0.979788 55.7325 -0.00578411 0.995423 -0.0953934 -4.13227 -0.984358 0.0111303 0.17583 58.5211
0.180815 0.0918706 0.979217 56.4725 -0.00343121 0.995681 -0.0927817 -4.21667 -0.983511 0.0134164 0.180349 58.6563
0.186184 0.0860854 0.978736 57.2458 -0.0019496 0.996185 -0.0872492 -4.26778 -0.982513 0.0143362 0.185641 58.8076
0.189646 0.0785118 0.978709 57.9899 -0.00346475 0.996845 -0.0792954 -4.35543 -0.981846 0.0116471 0.18932 58.9599
0.192783 0.0754587 0.978336 58.7068 -0.00740527 0.997122 -0.0754484 -4.40427 -0.981213 0.00730033 0.192787 59.1067
0.195247 0.0755249 0.977842 59.4596 -0.00835018 0.997122 -0.0753468 -4.46966 -0.980718 0.00654611 0.195316 59.2526
0.197414 0.0775951 0.977244 60.1493 -0.010571 0.996973 -0.0770262 -4.5226 -0.980263 0.00487559 0.197637 59.408
0.199784 0.0814253 0.976451 60.8724 -0.0145009 0.996678 -0.0801451 -4.58949 -0.979733 0.00185232 0.200301 59.5703
0.202496 0.0862017 0.975482 61.5501 -0.015457 0.996275 -0.0848305 -4.63636 -0.979161 0.00209983 0.203074 59.7377
0.204127 0.0920646 0.974606 62.2537 -0.0172119 0.995752 -0.0904572 -4.69639 -0.978793 0.00169 0.204845 59.8686
0.205744 0.0937415 0.974106 62.9487 -0.0163459 0.995592 -0.0923567 -4.76323 -0.978469 0.00307916 0.206369 60.0206
0.207145 0.0937792 0.973805 63.6222 -0.0186107 0.995593 -0.0919186 -4.82198 -0.978133 0.000917219 0.207977 60.1912
0.208131 0.0906946 0.973887 64.2958 -0.0174199 0.995878 -0.0890196 -4.8893 -0.977946 0.0015627 0.208853 60.3357
0.208474 0.0878106 0.974078 64.9211 -0.0184727 0.996137 -0.0858456 -4.94741 -0.977853 -9.72862e-05 0.209291 60.4821
0.208299 0.0873837 0.974154 65.5673 -0.0181594 0.996175 -0.0854761 -5.00158 -0.977897 0.000114526 0.209089 60.6096
0.206803 0.0864185 0.974559 66.1922 -0.0175919 0.996259 -0.0846097 -5.0592 -0.978224 0.000353219 0.20755 60.7522
0.205175 0.0867288 0.974875 66.8104 -0.0187194 0.996232 -0.0846891 -5.11677 -0.978546 -0.000873034 0.206025 60.9038
0.202184 0.0898809 0.975214 67.4018 -0.0197373 0.995951 -0.0877001 -5.16115 -0.979149 -0.00151661 0.203139 61.0014
0.200168 0.093831 0.975258 68.0174 -0.0186016 0.995588 -0.091969 -5.22567 -0.979585 0.00026786 0.20103 61.1304
0.198369 0.0945668 0.975555 68.6211 -0.0159927 0.995514 -0.0932497 -5.2798 -0.979997 0.00289615 0.198992 61.2678
0.196206 0.0934629 0.976098 69.2022 -0.0161837 0.99562 -0.092079 -5.33095 -0.980429 0.00226958 0.196859 61.3802
0.193825 0.0907411 0.976831 69.7851 -0.0168042 0.995874 -0.0891758 -5.38041 -0.980892 0.000869576 0.19455 61.5103
0.191836 0.0865475 0.977603 70.3594 -0.0166066 0.996248 -0.0849394 -5.44086 -0.981286 5.97337e-05 0.192554 61.632
0.189879 0.0851111 0.978112 70.9038 -0.0131496 0.996367 -0.0841469 -5.49742 -0.981719 0.00311596 0.190308 61.7255
0.188651 0.0870796 0.978176 71.4683 -0.00911664 0.996173 -0.0869236 -5.5379 -0.982002 0.00748052 0.188723 61.8009
0.186091 0.088986 0.978495 72.0143 -0.00493739 0.995962 -0.0896356 -5.58861 -0.98252 0.0118491 0.185779 61.9145
0.183997 0.0912183 0.978685 72.5516 -0.00553449 0.995765 -0.0917698 -5.62653 -0.982911 0.0114688 0.183723 62.0153
0.182937 0.0933261 0.978685 73.0842 -0.00630647 0.995575 -0.0937579 -5.68597 -0.983104 0.0109798 0.182716 62.1053
0.18128 0.092235 0.979097 73.6415 -0.00495576 0.995665 -0.0928783 -5.7291 -0.983419 0.0119848 0.180951 62.2342
0.181922 0.0902753 0.97916 74.1756 0.0010266 0.995759 -0.0919964 -5.78285 -0.983312 0.0177414 0.181057 62.3104
0.184291 0.0886765 0.978863 74.728 0.00641003 0.995792 -0.0914169 -5.82635 -0.982851 0.0231218 0.182947 62.4039
0.186071 0.0877666 0.978609 75.2792 0.00941177 0.995797 -0.0910978 -5.87911 -0.982491 0.0261611 0.184463 62.526
0.189218 0.0875842 0.978021 75.8249 0.00721598 0.995863 -0.0905781 -5.92938 -0.981909 0.0241964 0.187804 62.6332
0.194655 0.0881273 0.976905 76.3788 0.00526918 0.995847 -0.0908861 -5.9745 -0.980858 0.0228389 0.193382 62.7461
0.201287 0.0871643 0.975646 76.9443 0.00663877 0.995889 -0.0903424 -6.02365 -0.97951 0.0246618 0.199881 62.8597
0.209032 0.0870121 0.97403 77.502 0.00505908 0.995924 -0.0900536 -6.07678 -0.977896 0.0237518 0.20774 62.9783
0.217028 0.0857022 0.972396 78.0784 0.00498615 0.996028 -0.0888979 -6.11098 -0.976153 0.0241418 0.215739 63.128
0.226346 0.0847412 0.970354 78.6615 0.00214487 0.996163 -0.0874954 -6.17388 -0.974045 0.0218855 0.225296 63.2688
0.235498 0.0849289 0.968157 79.2319 -0.000144158 0.996178 -0.0873519 -6.2136 -0.971875 0.0204316 0.23461 63.4151
0.245123 0.0880655 0.965484 79.8193 -0.00435674 0.995956 -0.0897388 -6.26696 -0.969482 0.0177907 0.244515 63.5754
0.254171 0.091171 0.962853 80.4109 -0.00846001 0.995718 -0.0920498 -6.3087 -0.967122 0.0152506 0.253854 63.7449
0.265114 0.0931018 0.959712 81.0213 -0.0116464 0.995564 -0.0933626 -6.36312 -0.964147 0.0135745 0.265022 63.9271
0.275478 0.095011 0.956601 81.6367 -0.0137686 0.995392 -0.0948988 -6.4207 -0.961209 0.0129715 0.275516 64.1076
0.285342 0.0961788 0.953588 82.2553 -0.017572 0.99531 -0.0951289 -6.47477 -0.958265 0.0103878 0.285693 64.3072
0.295495 0.0965341 0.950455 82.8685 -0.0184446 0.995273 -0.0953517 -6.52905 -0.955166 0.0106451 0.295878 64.494
0.305558 0.0971302 0.947206 83.5079 -0.0213998 0.995233 -0.0951517 -6.58904 -0.951933 0.0088043 0.30618 64.7223
0.316375 0.0931431 0.94405 84.2198 -0.0218417 0.995619 -0.0909114 -6.63935 -0.948383 0.00814241 0.317024 64.9735
0.326786 0.0850781 0.941261 84.8408 -0.017954 0.996319 -0.0838213 -6.70834 -0.944928 0.0104922 0.32711 65.1861
0.338578 0.0805399 0.937485 85.5141 -0.0162858 0.996682 -0.0797438 -6.76831 -0.940798 0.0117318 0.338766 65.4235
0.348568 0.0771228 0.934105 86.1852 -0.0154169 0.996946 -0.0765582 -6.80573 -0.937157 0.0122847 0.348692 65.6722
0.358473 0.0746226 0.930553 86.8654 -0.0113393 0.997075 -0.075589 -6.87057 -0.933471 0.0165448 0.358271 65.9499
0.366584 0.0709354 0.927677 87.5754 -0.0050481 0.997226 -0.0742587 -6.90588 -0.930371 0.022539 0.365925 66.2108
0.374639 0.0610777 0.925157 88.3158 0.00424654 0.997704 -0.0675868 -6.96135 -0.927161 0.0292494 0.37352 66.5052
0.381539 0.0558638 0.922663 89.0003 0.00998251 0.997865 -0.0645449 -7.02384 -0.924299 0.0338369 0.380167 66.7881
0.389255 0.0550295 0.919485 89.7286 0.0140564 0.997743 -0.0656638 -7.05066 -0.921023 0.0384846 0.387603 67.0899
0.396707 0.0613431 0.915893 90.4354 0.0153174 0.997183 -0.0734221 -7.1097 -0.917818 0.0431562 0.39465 67.3925
0.40356 0.0667877 0.912512 91.1541 0.0179369 0.996563 -0.0808721 -7.16302 -0.914777 0.0490044 0.400976 67.697
0.409222 0.0683556 0.909871 91.87 0.0168495 0.996454 -0.0824385 -7.22438 -0.912279 0.0490665 0.406619 68.0191
0.413645 0.0701232 0.907734 92.5556 0.00988718 0.996625 -0.0814956 -7.27552 -0.910385 0.0426852 0.411555 68.3413
0.416998 0.0732923 0.905947 93.252 0.00423841 0.996576 -0.0825751 -7.32631 -0.908897 0.0382735 0.41526 68.6865
0.42132 0.0766839 0.903664 93.9477 0.00209905 0.996334 -0.0855264 -7.40853 -0.90691 0.0379308 0.419614 69.0148
0.425077 0.0806956 0.901553 94.6083 -0.00032909 0.996032 -0.088997 -7.46386 -0.905157 0.0375339 0.423417 69.334
0.429095 0.0838329 0.899361 95.3076 -0.00372406 0.995839 -0.0910492 -7.53528 -0.903252 0.0357195 0.427622 69.6712
0.432978 0.0826502 0.897607 95.9741 -0.0048038 0.995985 -0.0893915 -7.59287 -0.901392 0.0343926 0.431637 69.9953
0.436899 0.0789929 0.896035 96.6006 -0.00378989 0.996289 -0.0859831 -7.6659 -0.899503 0.0341701 0.435577 70.3078
0.440616 0.0762594 0.894451 97.2576 -0.00371347 0.996532 -0.0831333 -7.72442 -0.897688 0.0333083 0.43937 70.6369
0.444161 0.0751765 0.892787 97.8753 -0.00477443 0.996658 -0.0815475 -7.78839 -0.895934 0.0319577 0.443036 70.9509
0.447509 0.0769571 0.890962 98.503 -0.00703978 0.996563 -0.0825425 -7.84307 -0.894252 0.0306663 0.446512 71.2702
0.45068 0.0778283 0.889286 99.1185 -0.00680488 0.996463 -0.0837595 -7.90522 -0.89266 0.0316973 0.449616 71.5792
0.452669 0.0759549 0.888438 99.7139 -0.0046148 0.996552 -0.0828465 -7.96061 -0.891667 0.0334021 0.451459 71.8878
0.454691 0.0746498 0.887516 100.31 -0.00236761 0.996579 -0.0826103 -8.01705 -0.890646 0.0354608 0.453312 72.1875
0.456188 0.0747345 0.88674 100.885 -0.00370453 0.996618 -0.0820893 -8.06736 -0.889876 0.0341632 0.454922 72.5004
0.457696 0.0737904 0.886041 101.462 -0.00192917 0.99663 -0.0820038 -8.12115 -0.889107 0.0358235 0.456296 72.8094
0.461129 0.0758325 0.884087 102.028 -0.00272905 0.996458 -0.0840477 -8.17337 -0.887329 0.0363441 0.459703 73.0905
0.463479 0.0758191 0.882858 102.583 -0.000418708 0.996351 -0.085346 -8.23151 -0.886108 0.0391865 0.46182 73.3873
0.466952 0.0749952 0.881097 103.135 0.00168653 0.99632 -0.0856963 -8.29014 -0.884281 0.0415021 0.465107 73.6819
0.469961 0.0733116 0.879637 103.663 0.00470698 0.996323 -0.0855513 -8.33282 -0.882675 0.0443462 0.467888 73.9576
0.472798 0.0724129 0.87819 104.188 0.00605775 0.996327 -0.0854155 -8.38735 -0.88115 0.0457041 0.470623 74.2467
0.476056 0.0721118 0.876454 104.703 0.00686983 0.996297 -0.0857036 -8.43739 -0.879388 0.0468208 0.473798 74.528
0.479592 0.0712423 0.874595 105.226 0.00745006 0.996332 -0.0852441 -8.48952 -0.87746 0.0473982 0.477303 74.8267
0.48347 0.0705479 0.872513 105.74 0.00932591 0.996275 -0.0857224 -8.54098 -0.875311 0.0495812 0.481011 75.0991
0.487289 0.0721284 0.870257 106.236 0.0083761 0.996151 -0.0872528 -8.58411 -0.873201 0.0498067 0.484809 75.3776
0.491448 0.0718376 0.867939 106.732 0.0110881 0.995995 -0.0887149 -8.63853 -0.870836 0.0532226 0.488684 75.6529
0.4961 0.0749078 0.865028 107.232 0.00912946 0.995766 -0.091465 -8.69042 -0.868218 0.053273 0.493315 75.9545
0.501132 0.0807947 0.861591 107.707 0.00574222 0.9953 -0.0966729 -8.73937 -0.865352 0.0533934 0.498313 76.2518
0.507337 0.0880514 0.857237 108.204 0.000149262 0.994757 -0.102265 -8.7894 -0.861748 0.0520109 0.504664 76.5497
0.513196 0.094687 0.853032 108.682 -0.00536613 0.99423 -0.107132 -8.83886 -0.858255 0.0504021 0.510743 76.8489
0.519525 0.0992111 0.848676 109.166 -0.00890873 0.993811 -0.110724 -8.89703 -0.854409 0.0499633 0.517194 77.159
0.524803 0.0996957 0.845366 109.653 -0.0128663 0.993933 -0.109229 -8.95528 -0.851127 0.046447 0.522902 77.4725
0.530537 0.0987107 0.841895 110.148 -0.0195088 0.994355 -0.104293 -9.01424 -0.847437 0.0389067 0.529468 77.7945
0.536047 0.0964076 0.838665 110.644 -0.0258401 0.994866 -0.0978473 -9.07295 -0.843792 0.0307796 0.535786 78.1294
0.542154 0.094654 0.834931 111.156 -0.0322812 0.995248 -0.0918672 -9.13466 -0.839659 0.0228535 0.542633 78.477
0.547856 0.0925874 0.831433 111.662 -0.0352078 0.995528 -0.0876614 -9.19058 -0.835831 0.0187529 0.548666 78.8351
0.554153 0.0958043 0.826883 112.169 -0.0395308 0.995263 -0.0888207 -9.23726 -0.831475 0.0165329 0.555315 79.1873
0.560159 0.0999914 0.822328 112.683 -0.0440479 0.994879 -0.090968 -9.28664 -0.827213 0.0147348 0.561695 79.5611
0.566336 0.103558 0.817643 113.214 -0.0469841 0.994518 -0.0934166 -9.34216 -0.822834 0.014489 0.568096 79.9251
0.572148 0.105855 0.81329 113.736 -0.0492401 0.994281 -0.0947715 -9.38523 -0.818671 0.0141769 0.574088 80.3165
0.579171 0.106943 0.808161 114.281 -0.052527 0.994193 -0.0939174 -9.44768 -0.813512 0.011944 0.581426 80.7148
0.584611 0.10866 0.804004 114.827 -0.0580497 0.994053 -0.092136 -9.50058 -0.809234 0.00719159 0.587442 81.1326
0.591676 0.107085 0.799032 115.387 -0.0589937 0.994233 -0.0895605 -9.56025 -0.804015 0.00585289 0.594581 81.562
0.599566 0.104735 0.793443 115.962 -0.0587898 0.994485 -0.0868487 -9.61716 -0.798163 0.00542515 0.602417 82.0058
0.607159 0.104748 0.787646 116.538 -0.0596327 0.994484 -0.0862877 -9.68388 -0.792339 0.00542095 0.610056 82.4548
0.61425 0.107116 0.781808 117.105 -0.0642888 0.994244 -0.0857116 -9.73211 -0.786489 0.00238686 0.6176 82.9128
0.621933 0.108401 0.775531 117.689 -0.0660877 0.994105 -0.0859533 -9.78965 -0.780277 0.00220414 0.625431 83.394
0.628596 0.108963 0.770061 118.283 -0.0674453 0.994044 -0.0856018 -9.83986 -0.774802 0.00187194 0.632201 83.9006
0.633897 0.107552 0.765903 118.873 -0.0671066 0.994198 -0.0840698 -9.90422 -0.770501 0.00189441 0.637436 84.3979
0.637855 0.106231 0.762795 119.481 -0.066009 0.994338 -0.083279 -9.96075 -0.767323 0.00276862 0.641255 84.9209
0.641564 0.104017 0.759984 120.083 -0.0628336 0.99456 -0.0830798 -10.015 -0.764492 0.00554852 0.64461 85.4276
0.645284 0.100482 0.757305 120.717 -0.057797 0.994892 -0.0827582 -10.0762 -0.761753 0.00963259 0.647796 85.9706
0.649304 0.0941729 0.754676 121.34 -0.050359 0.99545 -0.0808905 -10.1413 -0.75886 0.0145178 0.651092 86.5085
0.65321 0.0880364 0.752042 121.962 -0.0439621 0.995952 -0.0784045 -10.1976 -0.7559 0.0181532 0.654436 87.0405
0.65686 0.0830241 0.749428 122.608 -0.0395407 0.996345 -0.0757217 -10.2706 -0.752975 0.0201056 0.657742 87.6094
0.659902 0.0805476 0.747022 123.248 -0.0373138 0.996524 -0.074488 -10.3134 -0.750425 0.0212806 0.660613 88.1765
0.662369 0.0825564 0.744615 123.853 -0.0392321 0.996368 -0.0755699 -10.3843 -0.74815 0.0208423 0.663202 88.7061
0.665985 0.0871094 0.740862 124.546 -0.0444062 0.996027 -0.0771931 -10.4401 -0.744643 0.0185105 0.667207 89.3656
0.669241 0.0907004 0.737489 125.159 -0.0503581 0.995776 -0.076768 -10.4927 -0.741337 0.0142377 0.670982 89.9469
0.67169 0.0883449 0.735546 125.808 -0.0518107 0.996035 -0.072319 -10.5569 -0.739019 0.0104668 0.673604 90.5222
0.674426 0.0854495 0.733381 126.452 -0.0543266 0.996331 -0.0661276 -10.6007 -0.736341 0.00475601 0.676594 91.1444
0.678977 0.0788994 0.729907 127.089 -0.0528321 0.996882 -0.0586124 -10.6618 -0.732256 0.00123389 0.681029 91.7467
0.683802 0.0740167 0.725904 127.762 -0.0494009 0.997255 -0.0551494 -10.702 -0.727994 0.00185095 0.685581 92.4105
0.688441 0.0714844 0.721761 128.399 -0.0445795 0.99742 -0.0562646 -10.7597 -0.723921 0.00655911 0.689851 93.0159
0.694019 0.0688096 0.716661 129.042 -0.0350808 0.997472 -0.0617989 -10.8125 -0.719101 0.0177486 0.694679 93.6495
0.698931 0.0709219 0.711664 129.697 -0.0302498 0.997112 -0.0696601 -10.8661 -0.714549 0.0271599 0.699058 94.268
0.704416 0.0720355 0.706122 130.359 -0.0279945 0.996882 -0.0737707 -10.9296 -0.709235 0.0321978 0.704237 94.9202
0.71038 0.0672291 0.7006 131.003 -0.0242104 0.997173 -0.0711395 -10.9605 -0.703402 0.0335742 0.709999 95.5715
0.716187 0.0602378 0.695304 131.658 -0.0187403 0.997569 -0.0671214 -11.0455 -0.697657 0.0350412 0.715574 96.2353
0.721953 0.0570192 0.689589 132.293 -0.0135074 0.99757 -0.0683435 -11.0816 -0.69181 0.0400262 0.720969 96.8947
0.726494 0.060372 0.684515 132.922 -0.0140286 0.997229 -0.0730634 -11.1679 -0.687029 0.0434774 0.725328 97.5551
0.730383 0.0625443 0.680168 133.538 -0.0148973 0.997021 -0.075683 -11.2049 -0.682875 0.0451449 0.729139 98.2214
0.733306 0.0593194 0.677306 134.182 -0.0122672 0.997179 -0.0740529 -11.2784 -0.679788 0.0459949 0.731965 98.9207
0.736027 0.0524457 0.674917 134.818 -0.00708514 0.997537 -0.0697887 -11.3408 -0.676915 0.0465845 0.734586 99.6075
0.73763 0.0485994 0.673454 135.433 -0.0048424 0.997761 -0.066699 -11.4063 -0.675188 0.0459381 0.736214 100.276
0.738138 0.0436218 0.673238 136.088 -0.000573593 0.997948 -0.0640322 -11.4656 -0.674649 0.0468785 0.736648 100.984
0.738296 0.0431318 0.673096 136.72 -0.00119889 0.998036 -0.0626389 -11.5278 -0.674475 0.0454391 0.736898 101.684
0.738087 0.0425213 0.673364 137.33 -0.000801324 0.998067 -0.0621472 -11.5719 -0.674705 0.0453304 0.736694 102.36
0.737764 0.0464162 0.673461 137.966 -0.00522184 0.997996 -0.0630632 -11.64 -0.675039 0.0430091 0.736528 103.07
0.736627 0.0487018 0.674544 138.584 -0.00669155 0.99788 -0.0647391 -11.6888 -0.676266 0.0431748 0.735391 103.78
0.734452 0.0543319 0.676482 139.216 -0.0129084 0.997728 -0.0661183 -11.7555 -0.678537 0.0398285 0.733485 104.467
0.732364 0.0551719 0.678675 139.842 -0.0140455 0.997724 -0.065952 -11.8109 -0.680769 0.0387686 0.731472 105.174
0.730031 0.057587 0.680983 140.481 -0.0177235 0.997704 -0.0653703 -11.8761 -0.683184 0.0356529 0.729376 105.865
0.72777 0.0580479 0.683361 141.099 -0.0199643 0.997782 -0.0634947 -11.9346 -0.685531 0.0325667 0.727315 106.53
0.725069 0.0555943 0.686429 141.739 -0.0188161 0.997963 -0.0609503 -11.9771 -0.688419 0.0312773 0.724638 107.232
0.722515 0.051312 0.689449 142.382 -0.0141294 0.99813 -0.0594785 -12.0335 -0.691211 0.0332327 0.721888 107.907
0.719709 0.0537515 0.692192 143.029 -0.0131529 0.997875 -0.0638132 -12.1084 -0.694151 0.0368227 0.718887 108.587
0.716248 0.0655359 0.694762 143.615 -0.0214919 0.99718 -0.071906 -12.1666 -0.697515 0.0365708 0.715637 109.203
0.712369 0.0744214 0.697848 144.31 -0.0274852 0.996557 -0.0782199 -12.2448 -0.701266 0.036541 0.711962 109.912
0.709224 0.0707921 0.70142 144.931 -0.0244038 0.996814 -0.0759299 -12.2864 -0.704561 0.0367339 0.708692 110.547
0.705131 0.0700982 0.705604 145.551 -0.0292181 0.997129 -0.0698612 -12.3575 -0.708475 0.0286448 0.705154 111.191
0.701566 0.0668353 0.709463 146.196 -0.0283142 0.99742 -0.0659633 -12.4047 -0.712042 0.0261897 0.701649 111.851
0.697785 0.0679669 0.713075 146.844 -0.0303404 0.997399 -0.0653775 -12.4852 -0.715664 0.0239845 0.698033 112.491
0.695276 0.0657892 0.715725 147.5 -0.0267256 0.99748 -0.0657259 -12.5218 -0.718246 0.0265694 0.695282 113.131
0.692307 0.0643009 0.718733 148.113 -0.0231099 0.997487 -0.0669792 -12.5994 -0.721233 0.0297603 0.692053 113.714
0.68857 0.0639836 0.722342 148.794 -0.0189138 0.997346 -0.0703134 -12.6464 -0.724923 0.0347534 0.687952 114.37
0.68484 0.0644086 0.725841 149.437 -0.0175723 0.997256 -0.0719134 -12.7305 -0.728481 0.0364945 0.684093 114.981
0.681214 0.0653317 0.729164 150.071 -0.0173459 0.997171 -0.0731394 -12.7707 -0.731879 0.0371755 0.68042 115.583
0.676838 0.0667584 0.733099 150.74 -0.0192087 0.997142 -0.0730684 -12.836 -0.735882 0.0353735 0.676186 116.215
0.672451 0.066447 0.737153 151.393 -0.0180541 0.997138 -0.0734126 -12.8962 -0.739922 0.0360577 0.671726 116.826
0.667026 0.0690799 0.741825 152.038 -0.0205156 0.997018 -0.0743969 -12.9443 -0.744752 0.0344057 0.666454 117.408
0.660877 0.0759545 0.746641 152.727 -0.0244811 0.996518 -0.079705 -13.0285 -0.750095 0.0343966 0.660435 118.028
0.653977 0.0812742 0.752136 153.407 -0.0263319 0.996055 -0.0847362 -13.0934 -0.756056 0.0356104 0.653538 118.636
0.645586 0.085642 0.758871 154.103 -0.030946 0.99581 -0.0860553 -13.2003 -0.763061 0.0320721 0.645531 119.262
0.640897 0.0787271 0.763579 154.804 -0.0284394 0.996479 -0.0788696 -13.2564 -0.7671 0.0288316 0.64088 119.834
0.633527 0.0747688 0.7701 155.499 -0.0323018 0.997008 -0.070226 -13.2918 -0.773046 0.0196145 0.634046 120.432
0.626543 0.0695512 0.776278 156.211 -0.0307453 0.997441 -0.0645516 -13.3582 -0.778781 0.0165774 0.627077 121.002
0.618721 0.0706354 0.782429 156.953 -0.0356554 0.997448 -0.0618515 -13.405 -0.784801 0.010371 0.619661 121.602
0.611118 0.0732001 0.788147 157.701 -0.0371663 0.99727 -0.0638044 -13.4833 -0.790666 0.00969953 0.612171 122.191
0.60473 0.0716675 0.7932 158.416 -0.0273699 0.997225 -0.069235 -13.5111 -0.79596 0.0201587 0.605013 122.745
0.597536 0.0817722 0.797662 159.15 -0.0320802 0.996428 -0.0781171 -13.6136 -0.8012 0.0210886 0.598025 123.312
0.590334 0.082351 0.802947 159.911 -0.0271331 0.996244 -0.0822272 -13.6902 -0.806703 0.026755 0.590351 123.855
0.583602 0.0785321 0.808233 160.669 -0.0234167 0.996526 -0.0799191 -13.7416 -0.811702 0.0277148 0.583414 124.419
0.576574 0.0725621 0.813817 161.451 -0.0175705 0.996919 -0.0764397 -13.7973 -0.816856 0.0297739 0.576072 124.968
0.568789 0.0715661 0.819364 162.198 -0.0176636 0.99704 -0.0748232 -13.8756 -0.822294 0.0280857 0.56837 125.507
0.562344 0.0729876 0.823676 162.948 -0.0185128 0.996959 -0.0757033 -13.9363 -0.826696 0.0273227 0.561984 126.02
0.556285 0.070905 0.827961 163.703 -0.0149676 0.997046 -0.0753287 -14.0172 -0.830857 0.0295116 0.555703 126.526
0.551085 0.0647526 0.831933 164.478 -0.00858543 0.997372 -0.0719422 -14.078 -0.834405 0.0325038 0.550193 127.046
0.546297 0.0620984 0.835286 165.201 -0.00783185 0.997583 -0.069042 -14.1399 -0.837555 0.0311756 0.545463 127.523
0.541565 0.0616026 0.838399 165.968 -0.00939487 0.997693 -0.0672384 -14.1911 -0.840606 0.0285373 0.540895 128.034
0.537058 0.063076 0.841184 166.706 -0.0102476 0.997615 -0.0682633 -14.2707 -0.843483 0.0280412 0.536424 128.508
0.533687 0.0658757 0.843112 167.424 -0.00866317 0.997335 -0.072442 -14.3249 -0.845637 0.0313574 0.532836 128.966
0.529623 0.0713552 0.845227 168.159 -0.00882983 0.996865 -0.078624 -14.3965 -0.848187 0.0341778 0.528592 129.447
0.526538 0.0742605 0.846902 168.885 -0.0117586 0.996719 -0.0800865 -14.4627 -0.850071 0.0322101 0.525683 129.897
0.524249 0.0698464 0.848696 169.587 -0.0111296 0.997107 -0.0751856 -14.5177 -0.851492 0.0299703 0.52351 130.346
0.521694 0.0625132 0.850839 170.32 -0.00784309 0.997621 -0.0684886 -14.5712 -0.853097 0.0290569 0.520943 130.805
0.519269 0.0565356 0.852739 171.019 -0.00262419 0.99791 -0.0645623 -14.6355 -0.854607 0.0312874 0.518332 131.217
0.51672 0.0548289 0.854397 171.735 0.00205393 0.997865 -0.0652778 -14.6979 -0.856152 0.0354852 0.515504 131.657
0.514502 0.0566633 0.855615 172.444 0.00454604 0.99762 -0.0688013 -14.7535 -0.857477 0.0392881 0.51302 132.083
0.512298 0.0647059 0.856367 173.167 0.00153317 0.997087 -0.0762557 -14.8045 -0.858807 0.0403786 0.510706 132.526
0.509555 0.0723544 0.857391 173.766 -0.000108281 0.996464 -0.0840263 -14.8631 -0.860438 0.0427232 0.507761 132.869
0.50767 0.0728902 0.858463 174.467 0.00359906 0.996227 -0.0867158 -14.9612 -0.861544 0.0471127 0.505492 133.275
0.504612 0.067393 0.860712 175.176 0.00367525 0.996772 -0.0802011 -15.0088 -0.863338 0.0436338 0.502736 133.703
0.501443 0.0604013 0.86308 175.822 -0.0033388 0.997688 -0.0678818 -15.057 -0.865184 0.0311572 0.500485 134.091
0.498305 0.0574194 0.865098 176.51 -0.0104179 0.998129 -0.0602482 -15.0976 -0.866939 0.0210095 0.497971 134.492
0.496408 0.0586854 0.866103 177.112 -0.0120862 0.998083 -0.0607009 -15.158 -0.868005 0.0196645 0.496166 134.871
0.49389 0.0612749 0.867363 177.781 -0.0103624 0.997858 -0.0645932 -15.219 -0.869463 0.0229139 0.493467 135.25
0.491166 0.0631972 0.86877 178.418 -0.0101973 0.997713 -0.0668118 -15.2727 -0.871006 0.0239566 0.490688 135.601
0.488108 0.0622428 0.870561 179.055 -0.00940305 0.997771 -0.0660659 -15.3107 -0.872733 0.0240614 0.487605 135.944
0.486223 0.0616197 0.871659 179.697 -0.0100048 0.997838 -0.0649587 -15.3627 -0.873777 0.0228636 0.485788 136.328
0.483997 0.0608946 0.872948 180.307 -0.00921195 0.997875 -0.0645017 -15.4071 -0.875021 0.0231771 0.483529 136.689
0.480747 0.0611018 0.874728 180.905 -0.00819175 0.997839 -0.0651992 -15.4549 -0.876821 0.0241787 0.480208 137.01
0.477175 0.0627306 0.876566 181.525 -0.00807114 0.99772 -0.0670072 -15.5027 -0.878771 0.0248993 0.476593 137.356
0.472815 0.0644374 0.878802 182.114 -0.00713967 0.99757 -0.0693047 -15.5523 -0.881133 0.026494 0.472127 137.666
0.468125 0.0666958 0.881142 182.702 -0.00766521 0.997417 -0.0714246 -15.5975 -0.883629 0.0266815 0.467427 137.976
0.463528 0.0688104 0.883407 183.294 -0.00711215 0.997237 -0.0739451 -15.6463 -0.886054 0.0279927 0.462736 138.297
0.457697 0.0721943 0.886173 183.895 -0.00637894 0.996939 -0.0779235 -15.6922 -0.889086 0.0300125 0.456756 138.602
0.451395 0.0747023 0.889192 184.483 -0.00465439 0.996673 -0.0813692 -15.7509 -0.892312 0.032591 0.450241 138.906
0.444524 0.0768849 0.892461 185.092 -0.00581369 0.996536 -0.0829551 -15.8038 -0.895748 0.0316871 0.443431 139.22
0.438201 0.0791858 0.895382 185.69 -0.0104559 0.996494 -0.0830108 -15.8502 -0.898816 0.0270134 0.437492 139.511
0.431415 0.0811503 0.898497 186.3 -0.0143806 0.996438 -0.0830913 -15.8926 -0.902039 0.0229258 0.431045 139.815
0.425356 0.0818364 0.901318 186.918 -0.0145873 0.996394 -0.0835847 -15.9487 -0.904908 0.0224055 0.425016 140.115
0.418145 0.0848934 0.904405 187.543 -0.0158286 0.996153 -0.0861872 -16.0107 -0.908242 0.0217233 0.41788 140.408
0.410208 0.0896786 0.907572 188.165 -0.0185291 0.995768 -0.0900185 -16.0715 -0.911804 0.0201098 0.410133 140.704
0.402286 0.0932775 0.91075 188.825 -0.0201181 0.995457 -0.0930666 -16.1283 -0.915293 0.0191169 0.402335 140.995
0.39513 0.0961182 0.913583 189.462 -0.0215742 0.995208 -0.095375 -16.1835 -0.918372 0.0179758 0.39531 141.289
0.387509 0.0985871 0.916579 190.128 -0.0220278 0.994972 -0.0977061 -16.2566 -0.921603 0.0176718 0.387732 141.572
0.380019 0.100867 0.919463 190.794 -0.0232021 0.994763 -0.0995376 -16.3072 -0.924688 0.0164927 0.380369 141.861
0.372966 0.101494 0.922277 191.469 -0.0202558 0.994653 -0.101267 -16.3915 -0.927624 0.0190879 0.373028 142.13
0.365866 0.10071 0.925203 192.171 -0.0180648 0.994709 -0.101132 -16.4535 -0.930492 0.0202871 0.365749 142.398
0.357853 0.0982277 0.928597 192.883 -0.0167461 0.994967 -0.0987949 -16.5263 -0.933628 0.0198037 0.357697 142.689
0.351072 0.0956054 0.931455 193.584 -0.0175339 0.99527 -0.0955469 -16.5832 -0.936184 0.0172118 0.351088 142.956
0.343929 0.0917 0.934507 194.346 -0.0161879 0.995651 -0.0917422 -16.6444 -0.938856 0.016425 0.343918 143.239
0.33831 0.0876603 0.936943 195.085 -0.0131344 0.995995 -0.0884426 -16.7376 -0.940943 0.0176148 0.338106 143.508
0.332852 0.0822095 0.939389 195.839 -0.0129414 0.996497 -0.0826218 -16.7906 -0.94289 0.0153438 0.33275 143.773
0.327193 0.0776157 0.941765 196.627 -0.0122883 0.996886 -0.0778893 -16.8223 -0.944878 0.0139121 0.327128 144.048
0.321736 0.0769105 0.943701 197.418 -0.00761696 0.996873 -0.0786472 -16.8977 -0.946799 0.0181155 0.321316 144.329
0.317298 0.0839631 0.944602 198.18 -0.004337 0.996191 -0.0870919 -16.9608 -0.948316 0.0235373 0.316453 144.575
0.313865 0.09483 0.94472 198.984 -0.000141579 0.995004 -0.0998305 -17.0439 -0.949468 0.0311995 0.31231 144.827
0.309969 0.100921 0.945375 199.789 0.00561338 0.994139 -0.107967 -17.1248 -0.95073 0.0387733 0.307586 145.079
0.305162 0.0974829 0.947298 200.613 0.012791 0.994238 -0.106434 -17.1931 -0.952215 0.0445964 0.302156 145.348
0.299721 0.0896952 0.949801 201.456 0.0195173 0.994786 -0.100102 -17.2688 -0.953827 0.0485403 0.296408 145.616
0.294886 0.084683 0.951773 202.311 0.022564 0.99517 -0.0955353 -17.3275 -0.955266 0.0496478 0.291551 145.875
0.29108 0.089595 0.952494 203.175 0.0194604 0.994845 -0.0995257 -17.4389 -0.956501 0.0475058 0.287835 146.129
0.285754 0.0994647 0.953127 204.028 0.0136969 0.994073 -0.107844 -17.5258 -0.958205 0.0438718 0.282698 146.399
0.279878 0.102363 0.954563 204.853 0.0106441 0.993907 -0.109703 -17.6222 -0.959977 0.0408638 0.277083 146.659
0.275687 0.0984612 0.956192 205.745 0.00795374 0.994472 -0.104696 -17.6862 -0.961215 0.0364687 0.27338 146.91
0.269687 0.0956425 0.958187 206.667 0.00589564 0.994873 -0.100964 -17.7639 -0.96293 0.0328777 0.26774 147.17
0.264481 0.0968434 0.959516 207.524 0.00416975 0.994821 -0.101556 -17.861 -0.964382 0.0308606 0.262708 147.411
0.259107 0.100458 0.96061 208.424 0.00200012 0.994518 -0.104544 -17.9662 -0.965846 0.0290094 0.257486 147.665
0.254277 0.100664 0.961878 209.316 0.00582114 0.994391 -0.105606 -18.0434 -0.967114 0.0324524 0.252265 147.9
0.250047 0.0998008 0.963077 210.224 0.00994002 0.994357 -0.105623 -18.1451 -0.968183 0.0359837 0.247644 148.131
0.246175 0.0988969 0.964167 211.182 0.0122808 0.994382 -0.105132 -18.2213 -0.969148 0.0377216 0.243578 148.369
0.242508 0.0979851 0.965188 212.085 0.0144042 0.994413 -0.104571 -18.3191 -0.970042 0.0392621 0.239742 148.603
0.238679 0.0972446 0.966217 213.034 0.0148629 0.994491 -0.103762 -18.4273 -0.970985 0.0391265 0.235918 148.842
0.236559 0.0960954 0.966853 213.914 0.0125056 0.994714 -0.101924 -18.5128 -0.971537 0.0362022 0.234106 149.062
0.23401 0.0937517 0.967703 214.864 0.0131054 0.994945 -0.0995601 -18.6054 -0.972146 0.0359802 0.231599 149.298
0.231744 0.0943095 0.968194 215.824 0.0106691 0.994983 -0.0994726 -18.6761 -0.972718 0.0333819 0.229576 149.531
0.229672 0.0964392 0.968478 216.681 0.00791183 0.994861 -0.100943 -18.7836 -0.973236 0.0308461 0.227729 149.739
0.226255 0.0981078 0.969115 217.714 0.00692456 0.994728 -0.102317 -18.8798 -0.974043 0.0298605 0.224383 149.986
0.225506 0.0977977 0.969321 218.656 0.00810072 0.994726 -0.102246 -18.969 -0.974208 0.0309092 0.223525 150.216
0.223931 0.0964331 0.969822 219.549 0.00763192 0.994889 -0.100688 -19.0881 -0.974575 0.0299487 0.222051 150.423
0.222507 0.0927133 0.970513 220.46 0.00909815 0.995227 -0.0971602 -19.1389 -0.974889 0.0304487 0.220602 150.635
0.22049 0.0899665 0.971231 221.466 0.011275 0.995436 -0.0947683 -19.2657 -0.975324 0.031846 0.218469 150.852
0.21992 0.0923098 0.971141 222.369 0.0108534 0.99522 -0.0970564 -19.3169 -0.975458 0.0318848 0.217867 151.088
0.216269 0.0979259 0.97141 223.268 0.00824694 0.994739 -0.102114 -19.4409 -0.976299 0.0300952 0.214324 151.27
0.215658 0.100805 0.971252 224.212 0.010216 0.99437 -0.105472 -19.5265 -0.976416 0.0326682 0.213414 151.504
0.213595 0.101644 0.97162 225.137 0.00791998 0.99436 -0.105764 -19.6298 -0.97689 0.0302859 0.211585 151.721
0.208956 0.0984374 0.972958 226.052 0.00755177 0.994729 -0.102262 -19.7098 -0.977896 0.0287158 0.207111 151.896
0.206777 0.0927387 0.973983 227.022 0.00668471 0.99534 -0.0961914 -19.8061 -0.978365 0.0264009 0.205193 152.131
0.202804 0.0887815 0.975186 227.916 0.00894995 0.995672 -0.0925077 -19.8907 -0.979179 0.0274888 0.201131 152.299
0.199731 0.0889022 0.975809 228.843 0.00707232 0.995719 -0.0921636 -19.9836 -0.979825 0.0253092 0.198247 152.516
0.194824 0.0905191 0.976652 229.826 0.00659155 0.995589 -0.0935891 -20.07 -0.980816 0.024671 0.193368 152.706
0.192517 0.0903953 0.977121 230.717 0.00723207 0.99559 -0.0935288 -20.1502 -0.981267 0.0250725 0.191014 152.926
0.187833 0.0901881 0.978052 231.617 0.00706045 0.995626 -0.0931646 -20.2359 -0.982176 0.0244049 0.186375 153.082
0.182178 0.0892774 0.979204 232.539 0.00802843 0.995701 -0.0922752 -20.3232 -0.983233 0.024672 0.180678 153.229
0.179046 0.0892776 0.979782 233.479 0.00724152 0.995728 -0.0920539 -20.4052 -0.983814 0.023577 0.177634 153.426
0.17548 0.0894807 0.980408 234.385 0.00596147 0.995746 -0.0919475 -20.4943 -0.984465 0.0219796 0.1742 153.598
0.171777 0.0905395 0.980966 235.355 0.00304805 0.995714 -0.0924344 -20.5813 -0.985131 0.0188682 0.170765 153.792
0.166433 0.0900945 0.981928 236.236 0.0014176 0.995794 -0.091607 -20.6595 -0.986052 0.0166385 0.165606 153.927
0.162066 0.0913418 0.982543 237.2 -0.00245425 0.995741 -0.0921639 -20.7311 -0.986777 0.0125252 0.1616 154.04
0.158711 0.0951778 0.982727 238.078 -0.00801559 0.995434 -0.0951139 -20.8334 -0.987292 0.00721853 0.15875 154.239
0.155702 0.100304 0.982698 238.954 -0.0111676 0.994946 -0.0997845 -20.9203 -0.987741 0.00456228 0.156035 154.385
0.152652 0.102553 0.982945 239.909 -0.0126645 0.994723 -0.101815 -21.0064 -0.988199 0.00309379 0.153146 154.531
0.14825 0.100693 0.98381 240.807 -0.0134118 0.994916 -0.0998082 -21.0811 -0.988859 0.00160187 0.148847 154.689
0.144827 0.0967929 0.984711 241.739 -0.012754 0.995304 -0.0959583 -21.1792 -0.989375 0.00133838 0.145382 154.829
0.141734 0.0943089 0.985402 242.658 -0.0128965 0.995543 -0.0934245 -21.2575 -0.989821 0.00053313 0.142318 154.966
0.138213 0.0924529 0.986078 243.56 -0.0108431 0.995715 -0.0918366 -21.3526 -0.990343 0.00200087 0.138623 155.096
0.135289 0.0927789 0.986453 244.466 -0.0106204 0.995685 -0.0921907 -21.4352 -0.990749 0.00199582 0.135691 155.221
0.130417 0.0941785 0.986976 245.369 -0.0112487 0.995555 -0.0935107 -21.5128 -0.991395 0.00109317 0.130897 155.358
0.125752 0.0973436 0.987274 246.302 -0.0121759 0.995251 -0.0965792 -21.6087 -0.991987 0.000124045 0.12634 155.489
0.121502 0.0933031 0.988196 247.203 -0.00264122 0.995599 -0.0936773 -21.6769 -0.992588 0.00877196 0.121214 155.579
0.116298 0.0871191 0.989386 248.102 -9.22763e-05 0.996147 -0.0877036 -21.766 -0.993214 0.0101084 0.115858 155.698
0.111809 0.0886558 0.989767 249.032 -0.000430799 0.996017 -0.0891669 -21.8304 -0.99373 0.00954329 0.111402 155.808
0.10678 0.0995763 0.989284 249.904 0.00158825 0.994954 -0.100318 -21.9371 -0.994281 0.0122833 0.106083 155.902
0.102374 0.11311 0.988294 250.75 0.00208829 0.993488 -0.113921 -22.0048 -0.994744 0.0137264 0.101471 155.994
0.0960014 0.117025 0.988478 251.635 0.000217278 0.993062 -0.117589 -22.1276 -0.995381 0.0115035 0.0953099 156.09
0.0898178 0.112503 0.989584 252.525 -0.00330268 0.993628 -0.112663 -22.1989 -0.995953 0.0068509 0.089617 156.196
0.0843691 0.105462 0.990838 253.398 -0.00489662 0.994415 -0.105426 -22.2977 -0.996423 0.00404297 0.0844144 156.279
0.0797008 0.101143 0.991674 254.295 -0.00693815 0.994871 -0.100912 -22.3809 -0.996795 0.00116236 0.0799938 156.347
0.0725641 0.100807 0.992256 255.187 -0.0106311 0.994901 -0.100298 -22.4756 -0.997307 -0.00327076 0.0732657 156.437
0.0656142 0.0989199 0.99293 256.067 -0.0144064 0.995064 -0.0981806 -22.5605 -0.997741 -0.00786249 0.0667154 156.508
0.0582694 0.0947725 0.993792 256.968 -0.0188697 0.99541 -0.0938204 -22.6457 -0.998123 -0.0132857 0.0597903 156.57
0.0510029 0.090654 0.994576 257.837 -0.0206157 0.995755 -0.0897043 -22.7368 -0.998486 -0.0159287 0.0526553 156.624
0.0448278 0.092637 0.99469 258.699 -0.0159824 0.99563 -0.0920043 -22.8112 -0.998867 -0.0117732 0.0461125 156.664
0.0386248 0.0964914 0.994584 259.589 -0.0146917 0.995274 -0.0959878 -22.8865 -0.999146 -0.0109047 0.0398599 156.701
0.0315081 0.0990954 0.994579 260.483 -0.0118589 0.99504 -0.0987657 -22.9628 -0.999433 -0.00868271 0.032527 156.744
0.0256567 0.0974068 0.994914 261.328 -0.0112895 0.995206 -0.0971443 -23.0414 -0.999607 -0.00873963 0.0266334 156.764
0.0187818 0.0942473 0.995372 262.205 -0.0131465 0.995484 -0.0940099 -23.1327 -0.999737 -0.01132 0.019936 156.793
0.0130677 0.0930403 0.995577 263.068 -0.00932627 0.99563 -0.0929228 -23.2079 -0.999871 -0.00807073 0.0138783 156.804
0.0076325 0.0949237 0.995455 263.889 -0.00685667 0.995466 -0.0948721 -23.2954 -0.999947 -0.00610139 0.00824875 156.821
0.00291314 0.0992599 0.995057 264.783 -0.00786531 0.995033 -0.0992345 -23.3614 -0.999965 -0.00753735 0.00367938 156.828
-0.000810012 0.100938 0.994892 265.653 -0.00511019 0.994879 -0.100941 -23.4408 -0.999987 -0.00516585 -0.000290053 156.833
-0.00319877 0.0998632 0.994996 266.505 0.000212582 0.995001 -0.0998631 -23.5262 -0.999995 -0.00010792 -0.00320401 156.831
-0.00485231 0.0974309 0.99523 267.381 0.00263464 0.99524 -0.097419 -23.61 -0.999985 0.00214937 -0.0050859 156.824
-0.00735499 0.095523 0.9954 268.258 0.0044241 0.99542 -0.0954923 -23.6988 -0.999963 0.0037014 -0.0077439 156.826
-0.00901363 0.0944576 0.995488 269.098 0.00679551 0.995511 -0.0943983 -23.7748 -0.999936 0.00591398 -0.00961506 156.821
-0.00925038 0.0960187 0.995337 269.97 0.00848346 0.995351 -0.0959413 -23.8582 -0.999921 0.00755641 -0.0100219 156.802
-0.0102451 0.0974197 0.995191 270.839 0.0106 0.995198 -0.0973112 -23.9349 -0.999891 0.00955201 -0.0112285 156.804
-0.0106755 0.0990437 0.995026 271.688 0.0138875 0.995001 -0.0988923 -24.0199 -0.999847 0.0127627 -0.0119976 156.803
-0.00872489 0.100255 0.994924 272.534 0.015954 0.994849 -0.100107 -24.0959 -0.999835 0.0149996 -0.0102794 156.786
-0.00741277 0.100286 0.994931 273.367 0.0174061 0.994821 -0.100145 -24.1835 -0.999821 0.0165755 -0.00911997 156.778
-0.00577261 0.100341 0.994936 274.192 0.0191961 0.994781 -0.100214 -24.2667 -0.999799 0.0185204 -0.00766863 156.771
-0.00364722 0.0992322 0.995058 274.995 0.0201725 0.994869 -0.0991395 -24.3475 -0.99979 0.0197113 -0.00563027 156.769
-0.00136166 0.0973773 0.995247 275.837 0.020996 0.995031 -0.0973275 -24.428 -0.999779 0.0207637 -0.00339943 156.774
0.00222672 0.0940584 0.995564 276.605 0.0212012 0.995338 -0.0940845 -24.5048 -0.999773 0.0213167 0.000222186 156.78
0.00553769 0.0911099 0.995825 277.43 0.0202401 0.995626 -0.0912042 -24.5883 -0.99978 0.0206607 0.00366939 156.783
0.00895523 0.0886487 0.996023 278.207 0.0191672 0.995864 -0.0888069 -24.6623 -0.999776 0.0198863 0.00721904 156.783
0.0121039 0.088861 0.99597 278.956 0.0137785 0.995934 -0.0890252 -24.7289 -0.999832 0.0148005 0.0108303 156.812
0.0165094 0.0901184 0.995794 279.737 0.0113244 0.995849 -0.0903112 -24.8044 -0.9998 0.0127677 0.0154204 156.818
0.0203569 0.0908931 0.995653 280.489 0.00988924 0.995792 -0.091108 -24.867 -0.999744 0.0117009 0.0193723 156.839
0.0239746 0.0880204 0.99583 281.213 0.0108031 0.996035 -0.0882986 -24.9375 -0.999654 0.0128749 0.0229287 156.86
0.0276854 0.0847014 0.996022 281.96 0.00822923 0.996351 -0.0849581 -25.0044 -0.999583 0.0105486 0.0268873 156.883
0.0310094 0.0827826 0.996085 282.657 0.00584907 0.996532 -0.0830019 -25.0658 -0.999502 0.00840001 0.0304176 156.91
0.0353512 0.0837591 0.995859 283.352 0.00672199 0.996439 -0.0840465 -25.1278 -0.999352 0.0096653 0.0346623 156.942
0.0390913 0.0851279 0.995603 284.046 0.00619051 0.996325 -0.0854327 -25.1873 -0.999216 0.00950296 0.0384206 156.972
0.0420634 0.0870507 0.995315 284.709 0.00593915 0.996158 -0.0873753 -25.24 -0.999097 0.00958663 0.0413848 157
0.0448121 0.0896691 0.994963 285.381 0.00456011 0.995935 -0.0899621 -25.3171 -0.998985 0.00856854 0.0442211 157.043
0.048049 0.0901983 0.994764 286.027 0.00206803 0.995903 -0.0904015 -25.3668 -0.998843 0.0064009 0.0476657 157.082
0.0512894 0.0906654 0.99456 286.663 -0.000956713 0.995875 -0.090736 -25.4346 -0.998683 0.00370228 0.0511645 157.123
0.0535318 0.0916549 0.994351 287.252 -0.00219636 0.995787 -0.0916691 -25.4615 -0.998564 0.00272326 0.0535076 157.167
0.0574641 0.0901681 0.994267 287.9 -0.00360426 0.995925 -0.0901101 -25.5557 -0.998341 0.0015945 0.0575549 157.207
0.0609416 0.0918724 0.993904 288.485 -0.00322275 0.995768 -0.0918471 -25.5877 -0.998136 0.0023942 0.0609797 157.254
0.0637776 0.0948203 0.993449 289.053 -0.00813121 0.995492 -0.0944933 -25.6497 -0.997931 -0.00205139 0.0642611 157.297
0.0663839 0.094896 0.993271 289.619 -0.00844066 0.995485 -0.0945433 -25.6889 -0.997758 -0.00210771 0.0668852 157.335
0.0695095 0.0942559 0.993118 290.179 -0.0101984 0.995541 -0.0937721 -25.7592 -0.997529 -0.00361013 0.0701608 157.389
0.0718994 0.0940337 0.992969 290.777 -0.0119656 0.995556 -0.0934122 -25.8081 -0.99734 -0.00516522 0.072705 157.433
0.0748984 0.094382 0.992715 291.322 -0.0113199 0.995527 -0.0937953 -25.8682 -0.997127 -0.0042123 0.0756318 157.476
0.0782015 0.0958923 0.992315 291.861 -0.0130644 0.995376 -0.0951585 -25.9097 -0.996852 -0.00552251 0.0790927 157.537
0.0800146 0.0967029 0.992092 292.402 -0.0135313 0.995297 -0.095924 -25.9749 -0.996702 -0.00574896 0.0809468 157.587
0.08259 0.0979126 0.991762 292.96 -0.0129241 0.995183 -0.0971741 -26.0279 -0.9965 -0.00479206 0.0834576 157.637
0.0846186 0.0998023 0.991403 293.486 -0.0138196 0.994993 -0.0989842 -26.0749 -0.996318 -0.00532491 0.0855741 157.673
0.087189 0.100787 0.99108 293.938 -0.0153926 0.994886 -0.0998198 -26.1176 -0.996073 -0.0065521 0.0882945 157.73
0.0885576 0.102465 0.990787 294.401 -0.0158123 0.994714 -0.101458 -26.1603 -0.995946 -0.00668181 0.0897097 157.781
0.0898083 0.10361 0.990555 294.914 -0.0166638 0.994591 -0.102522 -26.213 -0.99582 -0.00729905 0.0910491 157.828
0.0899129 0.104619 0.99044 295.409 -0.0157477 0.994492 -0.103618 -26.2578 -0.995825 -0.0062806 0.0910652 157.872
0.0895211 0.104971 0.990438 295.962 -0.0154462 0.994457 -0.104001 -26.3184 -0.995865 -0.00598828 0.0906463 157.924
0.08903 0.104564 0.990525 296.446 -0.0176869 0.994483 -0.103392 -26.3534 -0.995872 -0.00831436 0.0903883 157.985
0.0872404 0.103366 0.99081 296.932 -0.0180008 0.994603 -0.102176 -26.4037 -0.996025 -0.00892144 0.0886303 158.028
0.085715 0.103629 0.990916 297.481 -0.0165015 0.994587 -0.102586 -26.4686 -0.996183 -0.00755841 0.0869611 158.078
0.0824952 0.10703 0.990827 297.99 -0.0135114 0.994245 -0.106275 -26.5012 -0.9965 -0.00462031 0.0834666 158.113
0.0812319 0.110318 0.990571 298.52 -0.00832714 0.993896 -0.110006 -26.5823 -0.99666 0.000687364 0.0816547 158.151
0.0787688 0.115766 0.990148 299.021 -0.00489068 0.993267 -0.115742 -26.6173 -0.996881 0.00427436 0.0788046 158.203
0.0751359 0.118838 0.990067 299.559 -0.00582885 0.992909 -0.118736 -26.6692 -0.997156 0.00315041 0.0752957 158.269
0.0740583 0.119659 0.990049 300.123 -0.00624758 0.992812 -0.119525 -26.6973 -0.997234 0.00266641 0.0742735 158.296
0.0739161 0.116479 0.990439 300.674 -0.00235685 0.993173 -0.116625 -26.7755 -0.997262 0.00628613 0.073686 158.329
0.0726317 0.11089 0.991175 301.25 0.00629962 0.993729 -0.111637 -26.8601 -0.997339 0.0143524 0.0714777 158.355
0.0711228 0.110314 0.991349 301.828 0.00914242 0.993752 -0.111237 -26.9256 -0.997426 0.0169748 0.0696699 158.414
0.0676637 0.113642 0.991215 302.44 0.00510418 0.993439 -0.114246 -26.9786 -0.997695 0.0127896 0.0666397 158.455
0.0648605 0.115606 0.991175 303.06 0.00130999 0.993256 -0.115934 -27.0228 -0.997893 0.00881798 0.0642716 158.488
0.0642374 0.114135 0.991386 303.678 0.00611523 0.993374 -0.11476 -27.099 -0.997916 0.0134344 0.0631138 158.537
0.0633301 0.112297 0.991654 304.301 0.0112403 0.993506 -0.113225 -27.1623 -0.997929 0.018317 0.0616565 158.576
0.0618611 0.111986 0.991782 304.92 0.0129423 0.993512 -0.112988 -27.2422 -0.998001 0.0198256 0.0600104 158.619
0.0588821 0.113403 0.991803 305.601 0.00913765 0.993424 -0.114131 -27.3059 -0.998223 0.015783 0.0574587 158.656
0.0565257 0.115097 0.991745 306.281 0.00707488 0.993262 -0.115676 -27.3775 -0.998376 0.0135551 0.0553305 158.687
0.0550101 0.118709 0.991404 306.929 0.0061652 0.992848 -0.119224 -27.4328 -0.998467 0.0126707 0.0538848 158.74
0.0532595 0.120605 0.991271 307.632 0.00711196 0.992609 -0.12115 -27.5203 -0.998555 0.0135023 0.0520081 158.769
0.0515083 0.119477 0.9915 308.319 0.0044364 0.992781 -0.119862 -27.5899 -0.998663 0.0105726 0.0506064 158.813
0.0497377 0.118584 0.991698 308.999 0.0007009 0.992922 -0.118766 -27.6745 -0.998762 0.00660221 0.0493026 158.879
0.0467665 0.11978 0.991698 309.756 -0.000303946 0.992786 -0.119897 -27.7433 -0.998906 0.00530577 0.0464656 158.887
0.0458562 0.124159 0.991202 310.455 0.00326075 0.992222 -0.124437 -27.8481 -0.998943 0.00893828 0.0450947 158.924
0.0441506 0.130495 0.990465 311.168 0.00451727 0.991396 -0.130819 -27.9147 -0.999015 0.0102499 0.0431813 158.959
0.0431826 0.134272 0.990003 311.919 0.00445267 0.990892 -0.134586 -28.0019 -0.999057 0.0102199 0.0421915 159.004
0.042639 0.132245 0.9903 312.684 0.00768747 0.991128 -0.132686 -28.0834 -0.999061 0.0132705 0.0412441 159.019
0.0420356 0.126329 0.991097 313.424 0.0133574 0.991814 -0.126987 -28.1855 -0.999027 0.0185764 0.0400041 159.038
0.0407111 0.123634 0.991492 314.198 0.0171499 0.992082 -0.124412 -28.2881 -0.999024 0.022069 0.0382684 159.076
0.0398532 0.124364 0.991436 314.961 0.0193902 0.991941 -0.125207 -28.371 -0.999017 0.0242141 0.0371206 159.111
0.0385585 0.125902 0.991293 315.744 0.0193831 0.99175 -0.126714 -28.463 -0.999068 0.0241002 0.0358 159.126
0.0380205 0.127346 0.991129 316.54 0.0209237 0.991528 -0.1282 -28.5571 -0.999058 0.0256123 0.0350338 159.165
0.038528 0.126572 0.991209 317.339 0.0211324 0.99162 -0.127446 -28.6504 -0.999034 0.0258568 0.0355304 159.192
0.0383813 0.1248 0.991439 318.124 0.0216529 0.991834 -0.125688 -28.7371 -0.999029 0.0262916 0.0353656 159.218
0.0394409 0.123477 0.991563 318.966 0.0221877 0.991983 -0.124412 -28.8372 -0.998976 0.0269074 0.036385 159.244
0.0403071 0.122786 0.991614 319.761 0.0227537 0.992051 -0.123765 -28.9431 -0.998928 0.0275515 0.0371929 159.288
0.0424959 0.121371 0.991697 320.601 0.0223117 0.992231 -0.122393 -29.0191 -0.998847 0.0273276 0.0394577 159.332
0.0451876 0.11958 0.991796 321.436 0.023004 0.992422 -0.120703 -29.1281 -0.998714 0.0282696 0.0420944 159.362
0.0462712 0.118366 0.991891 322.313 0.024576 0.992519 -0.119588 -29.2238 -0.998627 0.0299102 0.0430161 159.402
0.0492173 0.117789 0.991818 323.12 0.025166 0.99256 -0.119125 -29.3206 -0.998471 0.0308231 0.0458869 159.457
0.049871 0.118055 0.991754 323.961 0.0259316 0.992502 -0.119448 -29.4093 -0.998419 0.0316748 0.0464357 159.456
0.052968 0.117429 0.991668 324.817 0.0275124 0.992513 -0.118999 -29.5069 -0.998217 0.0335863 0.0493407 159.524
0.055466 0.116099 0.991688 325.711 0.029072 0.992608 -0.117832 -29.6011 -0.998037 0.035366 0.0516807 159.557
0.0582926 0.115121 0.99164 326.6 0.0310165 0.99264 -0.117061 -29.7106 -0.997818 0.0375809 0.0542929 159.602
0.0612983 0.115814 0.991378 327.472 0.0311815 0.992538 -0.117878 -29.7984 -0.997632 0.0381383 0.0572296 159.659
0.0646833 0.116312 0.991104 328.375 0.0318718 0.992437 -0.118548 -29.8993 -0.997397 0.0392564 0.0604871 159.709
0.0675233 0.11705 0.990828 329.248 0.0312364 0.99236 -0.11936 -30.0035 -0.997229 0.0390095 0.0633511 159.765
0.0696533 0.118286 0.990534 330.128 0.0288846 0.99229 -0.120527 -30.0943 -0.997153 0.0370063 0.0656996 159.846
0.0722776 0.119377 0.990215 331.071 0.0265298 0.99223 -0.121556 -30.1977 -0.997032 0.035056 0.068549 159.904
0.0744221 0.119852 0.989998 331.979 0.0242987 0.992239 -0.12195 -30.3035 -0.996931 0.0331314 0.0709322 159.986
0.0761818 0.118575 0.990018 332.884 0.0237263 0.992407 -0.120687 -30.4129 -0.996812 0.0326837 0.07279 160.055
0.0781462 0.116052 0.990164 333.833 0.0241774 0.992689 -0.118256 -30.5305 -0.996649 0.0331808 0.074769 160.127
0.0792265 0.113227 0.990405 334.726 0.0238517 0.993029 -0.115435 -30.625 -0.996571 0.0327684 0.0759736 160.201
0.0802744 0.113059 0.99034 335.68 0.0243479 0.993028 -0.115339 -30.712 -0.996475 0.0333715 0.076962 160.28
0.0813318 0.114482 0.99009 336.597 0.026427 0.992784 -0.116964 -30.8442 -0.996337 0.035678 0.0777195 160.351
0.0820032 0.114452 0.990039 337.518 0.0254997 0.992818 -0.116885 -30.9276 -0.996306 0.0348307 0.0784958 160.423
0.0816683 0.112454 0.990295 338.45 0.0233802 0.993125 -0.114704 -31.0367 -0.996385 0.0325209 0.0784776 160.51
0.0817466 0.111033 0.990449 339.402 0.0212738 0.993354 -0.113115 -31.1498 -0.996426 0.0303173 0.0788412 160.615
0.0822511 0.112136 0.990283 340.293 0.0193209 0.993284 -0.114081 -31.2443 -0.996424 0.0285164 0.0795321 160.667
0.0823025 0.113169 0.990161 341.201 0.0188213 0.993178 -0.115078 -31.3462 -0.99643 0.0281074 0.079611 160.746
0.081485 0.113538 0.990187 342.118 0.0185795 0.993145 -0.115406 -31.4454 -0.996501 0.0278011 0.0788169 160.841
0.0827069 0.114171 0.990012 343.058 0.0175076 0.993096 -0.115989 -31.5485 -0.99642 0.0269259 0.080137 160.943
0.0830216 0.114827 0.98991 343.966 0.0172569 0.993025 -0.116635 -31.6568 -0.996398 0.026766 0.080461 161.004
0.0826301 0.114614 0.989968 344.868 0.0169274 0.99306 -0.116385 -31.7615 -0.996437 0.0263745 0.0801166 161.081
0.0834128 0.113218 0.990063 345.779 0.017614 0.993202 -0.115061 -31.8534 -0.996359 0.0270365 0.0808515 161.164
0.0840181 0.113595 0.989968 346.671 0.0169671 0.993174 -0.115403 -31.9701 -0.99632 0.0264928 0.0815172 161.235
0.0834614 0.116379 0.989692 347.563 0.0172199 0.99284 -0.118201 -32.0653 -0.996362 0.0269077 0.0808598 161.316
0.0848348 0.117575 0.989434 348.457 0.0195482 0.992626 -0.11963 -32.1698 -0.996203 0.0294904 0.0819109 161.385
0.0857476 0.114259 0.989744 349.371 0.0224567 0.992928 -0.116572 -32.2716 -0.996064 0.0322222 0.0825754 161.473
0.0879223 0.111086 0.989914 350.257 0.0249217 0.993206 -0.113669 -32.3679 -0.995816 0.0346644 0.0845565 161.553
0.0897581 0.112619 0.989576 351.132 0.0282772 0.992898 -0.115561 -32.4578 -0.995562 0.038355 0.085936 161.626
0.0930285 0.118233 0.988619 352.011 0.0328274 0.99202 -0.121729 -32.5594 -0.995122 0.0437781 0.0884048 161.696
0.09649 0.120998 0.987952 352.901 0.0361669 0.991502 -0.124965 -32.6661 -0.994677 0.0477891 0.0912939 161.791
0.100468 0.120589 0.987605 353.802 0.0387645 0.9914 -0.124996 -32.7821 -0.994185 0.0508421 0.0949298 161.859
0.103096 0.120849 0.987303 354.719 0.0400369 0.991283 -0.125517 -32.8654 -0.993865 0.0524688 0.0973588 161.953
0.106983 0.122452 0.986691 355.597 0.0406547 0.991018 -0.127397 -32.9853 -0.993429 0.053743 0.101044 162.052
0.110681 0.12269 0.986254 356.476 0.0404718 0.990971 -0.127819 -33.096 -0.993032 0.0540626 0.104716 162.141
0.113746 0.119042 0.986352 357.401 0.0397469 0.991456 -0.124242 -33.2084 -0.992715 0.0533364 0.108042 162.272
0.117207 0.114576 0.986476 358.317 0.0382987 0.992062 -0.119775 -33.3231 -0.992369 0.0518192 0.111888 162.369
0.12209 0.113245 0.986037 359.219 0.035694 0.992326 -0.118387 -33.4272 -0.991877 0.0496494 0.117111 162.493
0.127418 0.112511 0.985447 360.115 0.0339411 0.992469 -0.117701 -33.537 -0.991268 0.0484444 0.12264 162.618
0.133548 0.112171 0.984674 361.002 0.0314966 0.992592 -0.117345 -33.6238 -0.990542 0.046685 0.129025 162.694
0.139348 0.111973 0.983892 361.914 0.0304052 0.992634 -0.117275 -33.7348 -0.989777 0.0462574 0.134917 162.843
0.14714 0.112886 0.982653 362.778 0.0279449 0.992595 -0.118213 -33.8353 -0.988721 0.0448539 0.142896 162.985
0.154587 0.113782 0.981405 363.666 0.0256356 0.99255 -0.119112 -33.9277 -0.987647 0.0435721 0.150518 163.113
0.163502 0.11493 0.979826 364.562 0.0229646 0.992478 -0.120246 -34.0242 -0.986276 0.0421618 0.159633 163.266
0.172965 0.115139 0.978175 365.472 0.020998 0.992487 -0.120536 -34.135 -0.984704 0.0413882 0.169247 163.412
0.182968 0.115123 0.976355 366.332 0.0193267 0.992507 -0.12065 -34.2336 -0.982929 0.0409448 0.179372 163.569
0.192329 0.115274 0.974537 367.237 0.0171241 0.992531 -0.120782 -34.3483 -0.981181 0.0399179 0.188919 163.773
0.201299 0.115036 0.972751 368.14 0.0152803 0.99259 -0.120545 -34.4561 -0.979411 0.0391294 0.19805 163.957
0.207678 0.114745 0.971444 368.954 0.0138377 0.992652 -0.120209 -34.5518 -0.978099 0.0384072 0.204565 164.116
0.21577 0.114587 0.969697 369.865 0.011972 0.992705 -0.11997 -34.6647 -0.976371 0.0374951 0.212825 164.327
0.221147 0.114742 0.968467 370.772 0.0108706 0.992703 -0.120096 -34.7726 -0.97518 0.0370867 0.218286 164.556
0.225886 0.115375 0.967297 371.628 0.00912979 0.992667 -0.120533 -34.8754 -0.974111 0.0360579 0.223176 164.751
0.231402 0.115192 0.966014 372.56 0.00808016 0.992703 -0.12031 -34.9826 -0.972825 0.0356456 0.228783 164.97
0.235645 0.11518 0.96499 373.441 0.00693895 0.992727 -0.120185 -35.0942 -0.971814 0.035017 0.233132 165.199
0.239264 0.115267 0.964088 374.331 0.00661734 0.992712 -0.120331 -35.1968 -0.970932 0.0351707 0.236758 165.422
0.24428 0.115494 0.962802 375.219 0.00601829 0.992682 -0.120606 -35.3059 -0.969686 0.035256 0.241798 165.632
0.248507 0.115143 0.961762 376.104 0.00544723 0.992728 -0.120257 -35.4085 -0.968615 0.0351237 0.246072 165.883
0.25275 0.114044 0.960787 377.01 0.00509167 0.992858 -0.119191 -35.5189 -0.967518 0.0350175 0.250365 166.118
0.257664 0.112542 0.959658 377.888 0.00444835 0.993045 -0.117652 -35.6177 -0.966224 0.0345835 0.255371 166.358
0.261751 0.110177 0.958826 378.748 0.00471931 0.993305 -0.115427 -35.7249 -0.965124 0.0347381 0.259478 166.596
0.26581 0.107909 0.957967 379.633 0.00470055 0.993558 -0.113223 -35.8296 -0.964014 0.0345988 0.263591 166.85
0.270927 0.106104 0.956734 380.503 0.00384363 0.993779 -0.111301 -35.9235 -0.962592 0.0338318 0.268833 167.091
0.275255 0.105471 0.955568 381.353 0.00325724 0.993856 -0.110635 -36.0368 -0.961366 0.0335654 0.273221 167.341
0.278939 0.109388 0.954058 382.218 0.00129675 0.993447 -0.114283 -36.1262 -0.960308 0.0331153 0.27697 167.596
0.283603 0.11251 0.952319 383.085 -0.00114388 0.993132 -0.116991 -36.2242 -0.958941 0.0320896 0.281784 167.863
0.287444 0.113128 0.951093 383.951 -0.00276287 0.993094 -0.117289 -36.3325 -0.957793 0.0310863 0.285772 168.129
0.290729 0.109361 0.950535 384.767 -0.00460641 0.993595 -0.112906 -36.4246 -0.956794 0.0284466 0.289371 168.384
0.293251 0.106437 0.950092 385.617 -0.00792863 0.99402 -0.108911 -36.5249 -0.956003 0.0244054 0.292341 168.655
0.294601 0.107454 0.94956 386.448 -0.0123585 0.994003 -0.108649 -36.6276 -0.95554 0.0202731 0.294162 168.926
0.295237 0.112919 0.948728 387.281 -0.0152055 0.993421 -0.113507 -36.7128 -0.955303 0.0190856 0.295012 169.192
0.296203 0.117618 0.947855 388.079 -0.0170816 0.992882 -0.117868 -36.8086 -0.954972 0.0187219 0.296104 169.462
0.296852 0.117861 0.947622 388.917 -0.0183162 0.992874 -0.117751 -36.9119 -0.954748 0.0175978 0.296895 169.731
0.296765 0.114268 0.948089 389.737 -0.0210202 0.993356 -0.113144 -37.0057 -0.954719 0.0136483 0.297196 170.002
0.297263 0.110102 0.948426 390.544 -0.0238349 0.993875 -0.107908 -37.1066 -0.954498 0.00947138 0.298067 170.272
0.297676 0.108095 0.948527 391.343 -0.0249233 0.99411 -0.105468 -37.1931 -0.954341 0.00775483 0.298617 170.522
0.296544 0.107693 0.948928 392.148 -0.0249008 0.994156 -0.105044 -37.2835 -0.954694 0.00752117 0.297493 170.786
0.29632 0.108555 0.9489 392.966 -0.0249231 0.99406 -0.105938 -37.3731 -0.954764 0.0077421 0.297265 171.045
0.296039 0.109468 0.948882 393.756 -0.024569 0.993955 -0.107002 -37.4527 -0.95486 0.00836374 0.296939 171.304
0.295114 0.106405 0.949519 394.571 -0.0190624 0.994237 -0.105492 -37.5374 -0.955272 0.0130321 0.295442 171.545
0.295641 0.10431 0.949587 395.368 -0.0172158 0.994441 -0.103877 -37.6228 -0.955144 0.0143623 0.295794 171.803
0.295267 0.105911 0.949526 396.17 -0.0173642 0.994268 -0.105502 -37.7147 -0.955257 0.0146634 0.295414 172.081
0.295039 0.110437 0.949081 396.942 -0.0154314 0.993719 -0.110834 -37.7987 -0.955361 0.0180546 0.29489 172.318
0.294459 0.11553 0.948655 397.762 -0.0150012 0.993102 -0.116286 -37.895 -0.955546 0.0200106 0.294161 172.551
0.294325 0.11457 0.948813 398.567 -0.0155863 0.993232 -0.115099 -37.9698 -0.955578 0.019088 0.294119 172.82
0.294284 0.110778 0.949276 399.345 -0.0150453 0.993674 -0.111295 -38.0644 -0.9556 0.0184701 0.294089 173.064
0.293962 0.11058 0.949399 400.172 -0.0158991 0.993713 -0.110819 -38.1566 -0.955685 0.0174819 0.293872 173.328
0.293972 0.112044 0.949224 401.003 -0.0154654 0.993533 -0.112485 -38.2364 -0.955689 0.0183872 0.293804 173.591
0.29361 0.115384 0.948936 401.814 -0.0148264 0.993119 -0.116169 -38.3359 -0.95581 0.020039 0.2933 173.845
0.293902 0.116525 0.948706 402.682 -0.0138931 0.992957 -0.117656 -38.4329 -0.955735 0.021399 0.293451 174.111
0.293828 0.11502 0.948913 403.531 -0.0135372 0.993135 -0.116189 -38.5312 -0.955762 0.0212939 0.293368 174.388
0.294451 0.112087 0.949071 404.392 -0.0124079 0.993463 -0.113481 -38.6164 -0.955586 0.0216385 0.293917 174.666
0.295128 0.111558 0.948923 405.272 -0.0092289 0.993447 -0.113922 -38.7194 -0.955413 0.024864 0.294224 174.937
0.295957 0.111752 0.948641 406.131 -0.00518468 0.993306 -0.115396 -38.8154 -0.955187 0.0292339 0.294556 175.202
0.29667 0.111256 0.948477 407.001 -0.00149437 0.993243 -0.11604 -38.9222 -0.954979 0.0330081 0.294832 175.461
0.297916 0.109695 0.948268 407.861 0.00163153 0.993316 -0.115419 -39.0071 -0.954591 0.0359322 0.295745 175.745
0.29993 0.108381 0.947784 408.735 0.00641449 0.993274 -0.115612 -39.1219 -0.95394 0.0407552 0.297218 175.997
0.300813 0.106475 0.947721 409.604 0.0107536 0.993306 -0.11501 -39.2393 -0.953623 0.0447879 0.297654 176.253
0.301241 0.103756 0.947886 410.491 0.00944833 0.993689 -0.111772 -39.3292 -0.953501 0.0426263 0.298359 176.564
0.301467 0.0993377 0.948288 411.353 0.00666205 0.994314 -0.106277 -39.3962 -0.953453 0.0383566 0.299091 176.855
0.302573 0.0948761 0.948392 412.229 0.00757234 0.994763 -0.101931 -39.5049 -0.953096 0.038023 0.30027 177.134
0.302983 0.0956639 0.948182 413.086 0.00815112 0.994652 -0.102957 -39.6019 -0.952961 0.038923 0.300583 177.416
0.303491 0.0983738 0.947742 413.946 0.00808433 0.994354 -0.105801 -39.6877 -0.9528 0.0397715 0.300982 177.679
0.304323 0.100233 0.947281 414.815 0.0089866 0.994102 -0.108074 -39.7969 -0.952527 0.0414023 0.301627 177.95
0.304776 0.0987186 0.947294 415.67 0.0111557 0.994176 -0.107193 -39.8838 -0.952359 0.0432376 0.301899 178.236
0.305244 0.0959546 0.947428 416.534 0.0128227 0.994406 -0.104844 -39.981 -0.952188 0.0441515 0.302306 178.504
0.305919 0.0944592 0.94736 417.346 0.012881 0.994564 -0.103325 -40.0607 -0.951971 0.043812 0.303039 178.783
0.305736 0.0948899 0.947376 418.173 0.0115477 0.994579 -0.103344 -40.1608 -0.952046 0.0425361 0.302983 179.058
0.305572 0.0951188 0.947406 418.997 0.0108909 0.994584 -0.103368 -40.2453 -0.952107 0.0419045 0.302881 179.319
0.305588 0.0936635 0.947546 419.8 0.0116074 0.99471 -0.102069 -40.3307 -0.952093 0.0421896 0.302884 179.561
0.303631 0.0905478 0.948477 420.601 0.0131737 0.99498 -0.0992044 -40.4268 -0.952699 0.0426165 0.300914 179.813
0.302803 0.0892792 0.948862 421.402 0.0126502 0.995138 -0.0976703 -40.505 -0.952969 0.0415782 0.300202 180.089
0.302093 0.0887572 0.949138 422.195 0.0133099 0.995166 -0.0972978 -40.5827 -0.953186 0.0420258 0.299451 180.355
0.300914 0.0896649 0.949427 422.957 0.0162154 0.994945 -0.099103 -40.6704 -0.953513 0.0452168 0.297939 180.579
0.299648 0.0941952 0.949388 423.725 0.0157431 0.99449 -0.103639 -40.7539 -0.95392 0.0460016 0.296514 180.82
0.298277 0.0999795 0.949229 424.483 0.0134091 0.993962 -0.108905 -40.831 -0.954385 0.045212 0.295135 181.072
0.297308 0.104351 0.949062 425.238 0.012299 0.993509 -0.113091 -40.9227 -0.954702 0.0452953 0.294095 181.299
0.29627 0.105509 0.949258 425.999 0.011872 0.993396 -0.11412 -41.0207 -0.95503 0.04508 0.293061 181.539
0.294117 0.101868 0.950325 426.742 0.0121489 0.993825 -0.110291 -41.0981 -0.955692 0.043984 0.291064 181.771
0.293121 0.0975022 0.951091 427.485 0.0125757 0.994307 -0.105808 -41.1604 -0.955993 0.0429753 0.290226 182.033
0.292385 0.0955537 0.951515 428.222 0.0141504 0.994454 -0.104214 -41.2474 -0.956196 0.043935 0.289412 182.243
0.291455 0.0958787 0.951767 428.929 0.0155265 0.994359 -0.104924 -41.336 -0.956459 0.0453582 0.288322 182.448
0.291371 0.0978923 0.951588 429.676 0.0152203 0.99415 -0.106931 -41.4118 -0.956489 0.0456401 0.288177 182.687
0.290942 0.0989034 0.951615 430.374 0.0165689 0.993972 -0.108371 -41.4884 -0.956597 0.0472971 0.28755 182.906
0.290993 0.099067 0.951582 431.104 0.0169891 0.993933 -0.108671 -41.569 -0.956574 0.0477891 0.287544 183.124
0.29105 0.0997928 0.951489 431.851 0.0187953 0.993757 -0.109975 -41.6504 -0.956523 0.0498919 0.287358 183.353
0.291053 0.100883 0.951373 432.579 0.0193747 0.993599 -0.111287 -41.7332 -0.956511 0.0508231 0.287235 183.583
0.291094 0.102547 0.951183 433.256 0.0181549 0.993468 -0.112662 -41.8149 -0.956522 0.0500638 0.28733 183.774
0.2912 0.10238 0.951168 434.023 0.0189834 0.993443 -0.112742 -41.8977 -0.956474 0.0508868 0.287347 184.017
0.291801 0.101488 0.95108 434.77 0.0188972 0.993549 -0.111818 -41.9816 -0.956292 0.0506013 0.288001 184.234
0.292013 0.0998509 0.951188 435.494 0.0196076 0.993701 -0.110333 -42.0625 -0.956213 0.0508692 0.288215 184.468
0.293273 0.0979885 0.950994 436.208 0.0203681 0.993867 -0.108687 -42.1414 -0.955812 0.051245 0.289478 184.69
0.294534 0.0959533 0.950812 436.939 0.0208274 0.994066 -0.10677 -42.2221 -0.955414 0.0512504 0.290788 184.91
0.296404 0.0945417 0.950372 437.663 0.0211121 0.994197 -0.105486 -42.3037 -0.954829 0.0513308 0.292688 185.14
0.298427 0.0950674 0.949686 438.379 0.0196017 0.994207 -0.105684 -42.3863 -0.954231 0.0501543 0.294835 185.369
0.300495 0.0968089 0.948857 439.062 0.0174738 0.99411 -0.10696 -42.4614 -0.953623 0.048721 0.297034 185.59
0.30213 0.0973016 0.948288 439.741 0.0171752 0.99406 -0.10747 -42.538 -0.953112 0.048757 0.298664 185.818
0.304076 0.0970424 0.947692 440.406 0.0163776 0.994119 -0.107051 -42.613 -0.952507 0.0480726 0.300698 186.028
0.305103 0.0963389 0.947434 441.067 0.0149782 0.994261 -0.105924 -42.691 -0.952202 0.0465086 0.301909 186.234
0.306206 0.0953812 0.947175 441.732 0.0137423 0.994421 -0.104582 -42.7622 -0.951866 0.0450399 0.303187 186.452
0.30713 0.0945369 0.94696 442.363 0.0136797 0.994512 -0.103721 -42.8367 -0.951569 0.0448099 0.304152 186.667
0.308172 0.0946433 0.946611 442.996 0.0131692 0.994519 -0.10372 -42.9064 -0.951239 0.0444299 0.305237 186.87
0.309261 0.0945259 0.946268 443.629 0.013544 0.994509 -0.103771 -42.9776 -0.950881 0.0449086 0.306283 187.076
0.310642 0.0943043 0.945837 444.23 0.0138343 0.994512 -0.103701 -43.0439 -0.950426 0.0452989 0.307633 187.266
0.311999 0.093561 0.945464 444.826 0.0153553 0.994513 -0.103482 -43.1068 -0.949958 0.0468041 0.30885 187.472
0.312919 0.0938447 0.945132 445.434 0.0150455 0.994492 -0.103727 -43.1761 -0.949661 0.0466781 0.309784 187.678
0.31416 0.0942519 0.94468 446.002 0.0143332 0.994475 -0.103987 -43.2394 -0.949262 0.0462088 0.311073 187.867
0.314945 0.0945684 0.944387 446.577 0.0136363 0.99447 -0.104131 -43.3033 -0.949012 0.0456735 0.311914 188.056
0.31604 0.0947467 0.944003 447.152 0.0133136 0.99446 -0.104268 -43.3669 -0.948653 0.045521 0.313028 188.254
0.317147 0.0945777 0.943649 447.693 0.0132503 0.994476 -0.104125 -43.4304 -0.948284 0.0455266 0.314142 188.436
0.317588 0.0941801 0.94354 448.196 0.0119612 0.994578 -0.103301 -43.4885 -0.948153 0.0440929 0.31474 188.612
0.318331 0.0934844 0.943359 448.763 0.0108408 0.994702 -0.102231 -43.5479 -0.947918 0.0427698 0.315631 188.801
0.319123 0.0926242 0.943176 449.271 0.0101251 0.994823 -0.101122 -43.6024 -0.947659 0.0418201 0.316533 188.983
0.319577 0.0920439 0.943079 449.761 0.0109681 0.994845 -0.100813 -43.6593 -0.947497 0.0425612 0.31692 189.132
0.320723 0.0930133 0.942595 450.283 0.0119188 0.994691 -0.10221 -43.7087 -0.947098 0.0440155 0.317911 189.329
0.320686 0.095907 0.942318 450.742 0.010642 0.994433 -0.104833 -43.7669 -0.947126 0.0436466 0.31788 189.474
0.321225 0.0990474 0.941809 451.217 0.00907093 0.994148 -0.107646 -43.8221 -0.946959 0.0431216 0.318447 189.645
0.322384 0.10113 0.941191 451.689 0.00833399 0.993935 -0.109652 -43.8731 -0.946572 0.0431939 0.319586 189.816
0.323506 0.10158 0.940758 452.13 0.0100841 0.993794 -0.110775 -43.9243 -0.946172 0.045323 0.320474 189.97
0.323613 0.101251 0.940757 452.559 0.0113429 0.993771 -0.110859 -43.976 -0.946122 0.0465461 0.320449 190.113
0.32301 0.100179 0.941078 453.004 0.0114706 0.993894 -0.109739 -44.026 -0.946326 0.0462416 0.319889 190.274
0.322058 0.0991437 0.941514 453.433 0.00980156 0.994099 -0.108034 -44.0746 -0.946669 0.0440215 0.319186 190.404
0.320521 0.0982655 0.942131 453.825 0.00962346 0.994215 -0.106972 -44.1255 -0.947193 0.0433533 0.317721 190.549
0.319519 0.0976243 0.942538 454.22 0.00956511 0.994296 -0.106228 -44.1689 -0.947532 0.0429573 0.316762 190.68
0.318426 0.0970666 0.942965 454.602 0.0101246 0.994339 -0.105774 -44.2134 -0.947894 0.0432283 0.31564 190.809
0.317104 0.0967416 0.943444 454.96 0.00982044 0.994396 -0.105267 -44.2546 -0.94834 0.0426456 0.314376 190.933
0.316404 0.095843 0.943771 455.32 0.0099948 0.994491 -0.104345 -44.2946 -0.948572 0.0424478 0.313703 191.057
0.315579 0.0950863 0.944123 455.673 0.0106034 0.994551 -0.103709 -44.3317 -0.94884 0.0427394 0.312851 191.17
0.314273 0.0942669 0.944641 456.004 0.0115583 0.994604 -0.103098 -44.372 -0.949262 0.0433194 0.311488 191.28
0.313303 0.0939781 0.944992 456.341 0.0109994 0.994666 -0.102565 -44.4108 -0.949589 0.0425282 0.310598 191.388
0.31223 0.0941403 0.945331 456.641 0.00965257 0.994712 -0.102246 -44.4439 -0.949958 0.0410491 0.30967 191.491
0.311202 0.0943445 0.945649 456.955 0.00815372 0.994758 -0.101927 -44.4792 -0.950309 0.0394306 0.308802 191.593
0.309786 0.0944814 0.9461 457.257 0.00868329 0.994728 -0.102181 -44.5115 -0.950767 0.0398694 0.307332 191.704
0.309065 0.0948616 0.946298 457.54 0.00980219 0.994642 -0.102909 -44.5414 -0.95099 0.0410815 0.30648 191.792
0.30799 0.0957435 0.94656 457.818 0.0105541 0.994518 -0.104029 -44.5727 -0.951331 0.0420299 0.305291 191.877
0.3079 0.0962623 0.946536 458.111 0.0105079 0.994464 -0.104555 -44.6073 -0.951361 0.0421384 0.305184 191.979
0.308042 0.0958381 0.946533 458.396 0.0103365 0.994517 -0.104061 -44.6333 -0.951316 0.0418389 0.305363 192.072
0.308167 0.09559 0.946518 458.67 0.00989162 0.994563 -0.103663 -44.661 -0.951281 0.0413081 0.305546 192.154
0.309192 0.0956304 0.946179 458.944 0.00865155 0.994607 -0.103352 -44.6952 -0.95096 0.0401416 0.306697 192.251
0.310431 0.0954961 0.945787 459.204 0.00744092 0.994667 -0.102874 -44.7207 -0.950567 0.0389727 0.308065 192.347
0.311887 0.0958545 0.945272 459.46 0.00570388 0.994691 -0.102748 -44.7466 -0.950102 0.0374374 0.309684 192.433
0.314869 0.0959103 0.944277 459.745 0.00530033 0.994688 -0.102798 -44.7767 -0.94912 0.0373729 0.312688 192.525
0.31857 0.0959501 0.943031 460.004 0.00527362 0.994669 -0.102986 -44.805 -0.947885 0.0377813 0.316366 192.611
0.324037 0.095553 0.941206 460.28 0.00632793 0.994645 -0.103157 -44.8344 -0.946023 0.0393825 0.321697 192.706
0.33077 0.096574 0.938757 460.527 0.0043264 0.994584 -0.103842 -44.8582 -0.943701 0.0384091 0.328561 192.794
0.340348 0.0971308 0.935269 460.815 0.0032295 0.994524 -0.10446 -44.8942 -0.940294 0.0385731 0.338171 192.914
0.350776 0.0984936 0.931265 461.094 0.000910406 0.994417 -0.105516 -44.9181 -0.936459 0.0378602 0.348728 193.027
0.362386 0.0981635 0.926844 461.355 0.00172724 0.994366 -0.10599 -44.9548 -0.932026 0.0400103 0.360175 193.133
0.376187 0.0986534 0.921277 461.636 -0.000784576 0.994349 -0.106158 -44.9786 -0.926543 0.0392124 0.374139 193.253
0.392135 0.100049 0.914451 461.924 -0.00391482 0.994241 -0.1071 -45.0134 -0.919899 0.0384177 0.390269 193.396
0.409598 0.101898 0.906557 462.212 -0.00795272 0.994103 -0.108145 -45.0417 -0.912231 0.0370864 0.407993 193.547
0.427987 0.103637 0.897823 462.487 -0.0105394 0.993908 -0.109704 -45.0754 -0.903724 0.0374894 0.426472 193.695
0.446403 0.10577 0.888559 462.766 -0.0119308 0.993605 -0.112281 -45.1151 -0.894753 0.0395212 0.44481 193.852
0.465898 0.107033 0.878341 463.027 -0.0130503 0.99338 -0.114129 -45.1427 -0.884742 0.04171 0.464211 194.009
0.484973 0.109381 0.867662 463.268 -0.0192269 0.993241 -0.114466 -45.1794 -0.874318 0.0388303 0.483798 194.178
0.498688 0.114156 0.859232 463.518 -0.0252247 0.992781 -0.117259 -45.2012 -0.866415 0.0368017 0.497967 194.354
0.50513 0.118707 0.854841 463.812 -0.0319263 0.992388 -0.118942 -45.245 -0.862452 0.032789 0.505075 194.516
0.503727 0.120942 0.855355 464.038 -0.0346636 0.992184 -0.119875 -45.2657 -0.863167 0.0307343 0.503982 194.658
0.499321 0.121868 0.857803 464.29 -0.0355667 0.992107 -0.120246 -45.2998 -0.865687 0.029532 0.499715 194.815
0.490965 0.122387 0.86254 464.542 -0.0350526 0.992056 -0.120812 -45.3343 -0.870474 0.0290803 0.491355 194.933
0.477806 0.122093 0.86994 464.78 -0.0318931 0.992053 -0.121714 -45.3613 -0.877886 0.0304106 0.477902 195.05
0.462651 0.121237 0.878211 465.039 -0.0270998 0.992076 -0.122679 -45.4022 -0.886126 0.0329585 0.462271 195.166
0.44588 0.119954 0.887019 465.23 -0.0220253 0.99215 -0.1231 -45.425 -0.894822 0.035351 0.445021 195.274
0.425728 0.119177 0.896968 465.478 -0.0182064 0.992216 -0.12319 -45.467 -0.904668 0.0361151 0.424584 195.366
0.404868 0.119457 0.906538 465.736 -0.0163405 0.992216 -0.123449 -45.4937 -0.914229 0.0351675 0.403669 195.455
0.384032 0.119348 0.915574 465.985 -0.0150601 0.992288 -0.123031 -45.526 -0.923197 0.0334594 0.382868 195.554
0.363655 0.11853 0.923962 466.243 -0.0131201 0.992425 -0.122149 -45.5553 -0.931441 0.0322977 0.362456 195.644
0.345302 0.117387 0.931121 466.492 -0.00831123 0.99249 -0.122042 -45.5855 -0.938455 0.0344027 0.343685 195.727
0.328565 0.116231 0.937302 466.768 -0.0022356 0.992492 -0.122291 -45.6283 -0.944479 0.0380851 0.326358 195.794
0.312985 0.11539 0.942723 467.029 0.00231019 0.992497 -0.12225 -45.6645 -0.949755 0.0404402 0.31037 195.884
0.299363 0.115453 0.947128 467.32 0.00225943 0.992564 -0.121705 -45.6965 -0.954136 0.0385741 0.296876 195.943
0.289192 0.113691 0.950496 467.53 0.00296172 0.992811 -0.119654 -45.7195 -0.957267 0.037418 0.286776 196.036
0.280353 0.110926 0.953466 467.824 0.0056621 0.993092 -0.117201 -45.7614 -0.95988 0.0382563 0.277788 196.09
0.273532 0.109536 0.955606 468.071 0.00697975 0.993242 -0.115848 -45.7879 -0.961838 0.0383581 0.270919 196.162
0.270715 0.109441 0.956418 468.302 0.00843036 0.993209 -0.116037 -45.8225 -0.962623 0.039476 0.267954 196.234
0.272927 0.109812 0.955747 468.539 0.00796503 0.993172 -0.116387 -45.844 -0.962002 0.0393776 0.270189 196.297
0.279412 0.109052 0.953958 468.776 0.00916882 0.993181 -0.116221 -45.8721 -0.960128 0.0412203 0.276506 196.367
0.289497 0.107373 0.951137 468.986 0.0108894 0.993255 -0.115442 -45.8951 -0.957117 0.0437774 0.286375 196.433
0.300958 0.106504 0.947671 469.16 0.00962035 0.993354 -0.114694 -45.9286 -0.953589 0.0436349 0.297933 196.51
0.313716 0.10846 0.943302 469.345 0.00334545 0.993322 -0.115324 -45.942 -0.949511 0.0393349 0.311258 196.585
0.327662 0.11053 0.938307 469.526 -0.00258912 0.993235 -0.116096 -45.9682 -0.944791 0.035611 0.325732 196.662
0.341497 0.11089 0.933318 469.701 -0.00687684 0.993284 -0.115498 -45.9896 -0.939858 0.033024 0.339966 196.742
0.35583 0.109048 0.928167 469.858 -0.00932385 0.993534 -0.113153 -46.0122 -0.934504 0.0316091 0.354546 196.808
0.370596 0.107269 0.922579 470.009 -0.00811046 0.993644 -0.112274 -46.03 -0.928759 0.0341257 0.369111 196.882
0.387117 0.105748 0.915946 470.116 -0.000322493 0.993417 -0.114556 -46.0367 -0.922031 0.0440512 0.384603 196.927
0.40326 0.10859 0.90862 470.25 0.00508448 0.992653 -0.12089 -46.0689 -0.915071 0.0533699 0.399745 196.987
0.417984 0.111451 0.901592 470.368 0.00255843 0.992298 -0.12385 -46.0788 -0.908451 0.054074 0.41448 197.058
0.432179 0.112846 0.8947 470.466 -0.0066189 0.99251 -0.121985 -46.0866 -0.901764 0.0467974 0.429688 197.132
0.445296 0.113069 0.888216 470.554 -0.0137495 0.992741 -0.119481 -46.0958 -0.895278 0.040992 0.443618 197.199
0.458553 0.112311 0.881542 470.654 -0.0170744 0.992912 -0.117618 -46.1049 -0.888503 0.0388822 0.45722 197.268
0.470858 0.111249 0.875167 470.755 -0.0177164 0.993009 -0.116697 -46.1234 -0.882031 0.0394431 0.469537 197.317
0.482003 0.110689 0.86915 470.83 -0.0186753 0.99306 -0.116113 -46.134 -0.875971 0.0397353 0.480725 197.39
0.494036 0.110358 0.862409 470.915 -0.0197014 0.993078 -0.115793 -46.1416 -0.869218 0.0402153 0.49279 197.432
0.504719 0.109157 0.856355 470.996 -0.0198174 0.993177 -0.114918 -46.1494 -0.863056 0.0410306 0.503439 197.492
0.513574 0.107159 0.851328 471.083 -0.0195327 0.993374 -0.113256 -46.1662 -0.857823 0.0415364 0.512264 197.54
0.521285 0.107082 0.846638 471.146 -0.0218034 0.993444 -0.112225 -46.1777 -0.853104 0.0400418 0.520202 197.583
0.528094 0.111128 0.841883 471.195 -0.0286607 0.993168 -0.11312 -46.1914 -0.848702 0.0356088 0.527671 197.638
0.536804 0.117841 0.835437 471.234 -0.0387996 0.992598 -0.115079 -46.1911 -0.842814 0.02936 0.537403 197.701
0.542721 0.123076 0.830847 471.268 -0.0461618 0.992081 -0.116807 -46.188 -0.838644 0.0250403 0.544105 197.733
0.547357 0.122637 0.827865 471.33 -0.0463827 0.99213 -0.116304 -46.1949 -0.835613 0.0252613 0.548738 197.766
0.554443 0.117371 0.823904 471.359 -0.0418289 0.992684 -0.113267 -46.2067 -0.83117 0.0283368 0.555296 197.798
0.559478 0.112332 0.821198 471.415 -0.0370595 0.993173 -0.110608 -46.2231 -0.828017 0.0314493 0.559821 197.818
0.563863 0.110173 0.818486 471.46 -0.0364115 0.993415 -0.108635 -46.2309 -0.825065 0.0314531 0.564162 197.845
0.568517 0.111607 0.815066 471.488 -0.0403193 0.993344 -0.107896 -46.2326 -0.821683 0.0284776 0.569233 197.887
0.572776 0.114797 0.811634 471.521 -0.045838 0.993081 -0.108113 -46.2268 -0.818429 0.0247208 0.574075 197.93
0.575887 0.117474 0.809045 471.537 -0.0500796 0.992833 -0.108513 -46.2278 -0.815994 0.0219743 0.577642 197.948
